
<svg xmlns="http://www.w3.org/2000/svg" version="1.1" xmlns:xlink="http://www.w3.org/1999/xlink" preserveAspectRatio="none" x="0px" y="0px" width="700px" height="100px" viewBox="0 0 700 100">
<defs>
<g id="Layer1_0_FILL">
<path fill="#ED4339" stroke="none" d="
M 562.6 630.25
Q 561.1 629.8 559.5 629.8 557.25 629.8 554.85 630.75 552.7 631.75 551.05 633.35 549.45 634.95 548.45 637.2 547.5 639.3 547.5 641.8 547.5 644.3 548.45 646.4 549.45 648.65 551.05 650.25 552.7 651.9 554.85 652.85 557.25 653.8 559.5 653.8 560.85 653.8 562.25 653.65 563.75 653.45 565.25 652.6
L 565.6 648.85 564.25 649.8
Q 562.95 650.45 561.75 650.65 560.35 650.8 559.5 650.75 557.65 650.7 556.05 650 554.45 649.25 553.15 648.05 551.95 646.85 551.25 645.25 550.5 643.7 550.5 641.85 550.5 640 551.25 638.4 551.9 636.85 553.15 635.5 554.5 634.25 556.05 633.6 557.65 632.85 559.5 632.85 561.1 632.85 562.75 633.55 564.3 634.15 565.6 635.75
L 565.4 631.4
Q 564.2 630.75 562.6 630.25
M 544.4 635.5
Q 543.1 638.4 543.1 641.85 543.1 645.35 544.4 648.15 545.75 651.2 547.9 653.3 550 655.5 553.1 656.8 556.15 658.1 559.5 658.1 562.45 658.1 564.85 657.4
L 565.1 654.1
Q 563.9 654.6 562.45 654.85 560.65 655.05 559.5 655.05 556.75 655.05 554.3 654.05 551.8 652.95 550.05 651.2 548.2 649.4 547.15 646.95 546.1 644.55 546.1 641.8 546.1 639.05 547.15 636.65 548.2 634.2 550.05 632.45 551.8 630.7 554.3 629.6 556.75 628.6 559.5 628.6 562.65 628.6 565.25 629.9
L 564.95 626.5
Q 562.4 625.55 559.5 625.55 556.25 625.55 553.1 626.8 550.15 628.05 547.9 630.3 545.7 632.5 544.4 635.5 Z"/>
</g>

<g id="Layer1_1_FILL">
<path fill="#ED4339" stroke="none" d="
M 577.95 646.5
L 589.3 646.5 583.65 633.75 577.95 646.5
M 585.35 643.95
L 581.95 643.95 583.65 640.1 585.35 643.95
M 600.75 657.6
Q 599.5 656.9 598.7 655.75 597.75 654.45 597.1 653.05
L 583.65 624 570.15 653.05
Q 569.55 654.35 568.6 655.75 567.75 656.9 566.5 657.6
L 571.5 657.6 583.65 630.45 595.8 657.6 600.75 657.6
M 587.7 650.4
L 589.3 653.95 589.6 654.8
Q 589.75 655.3 589.7 655.8 589.7 656.25 589.35 656.75 589.05 657.25 588.3 657.6
L 594.3 657.6 589.9 647.85 577.35 647.85 573 657.6 579 657.6
Q 578.35 657.25 577.9 656.75 577.65 656.35 577.55 655.8 577.55 655.1 577.65 654.8
L 577.95 653.95 579.6 650.4 587.7 650.4 Z"/>
</g>

<g id="Layer1_2_FILL">
<path fill="#ED4339" stroke="none" d="
M 621.25 629.05
L 621.3 641.5 603.05 625 603.05 653.45
Q 603.05 655 602.55 655.95 602.1 656.95 600.6 657.6
L 606.05 657.6 606.05 632.15 624.35 648.3 624.35 626.1 619.15 626.1
Q 620.2 626.65 620.65 627.25 621.2 627.85 621.25 629.05
M 629.3 627.35
Q 630 626.55 630.85 626.1
L 625.7 626.1 625.7 651.45 607.5 635.25 607.5 657.6 612.7 657.6
Q 611.45 656.9 611 656 610.5 655.15 610.5 653.8
L 610.5 642.2 628.75 658.65 628.75 629.1
Q 628.75 628.15 629.3 627.35 Z"/>
</g>

<g id="Layer1_3_FILL">
<path fill="#ED4339" stroke="none" d="
M 647.95 633.75
L 642.2 646.5 653.6 646.5 647.95 633.75
M 646.2 643.95
L 647.95 640.1 649.6 643.95 646.2 643.95
M 652 650.4
L 653.6 653.95 653.9 654.8
Q 654.05 655.3 654 655.8 653.9 656.4 653.6 656.75 653.3 657.25 652.55 657.6
L 658.55 657.6 654.15 647.85 641.65 647.85 637.3 657.6 643.25 657.6
Q 642.55 657.25 642.2 656.75 641.85 656.25 641.85 655.8 641.8 655.3 641.95 654.8 642 654.45 642.2 653.95
L 643.85 650.4 652 650.4
M 662.95 655.75
Q 662.2 654.75 661.35 653.05
L 647.95 624 634.45 653.05
Q 633.6 654.75 632.85 655.75 632.05 656.9 630.8 657.6
L 635.8 657.6 647.95 630.45 660.05 657.6 665.05 657.6
Q 663.8 656.9 662.95 655.75 Z"/>
</g>

<g id="Layer1_4_FILL">
<path fill="#ED4339" stroke="none" d="
M 693.05 641.7
Q 693.05 638.25 691.8 635.45 690.55 632.65 688.25 630.5 686.05 628.45 683.05 627.25 680.2 626.1 676.65 626.1
L 665.5 626.1
Q 666.6 626.65 667.05 627.4 667.55 628.2 667.65 629.6
L 667.65 654
Q 667.6 655.3 667.05 656.2 666.65 656.95 665.5 657.6
L 676.65 657.6
Q 680.1 657.6 683.05 656.35 685.85 655.2 688.25 653 690.55 650.9 691.8 647.95 693.05 645.1 693.05 641.7
M 689 636.6
Q 690.05 639 690.05 641.7 690.05 644.45 689 646.85 687.95 649.25 686.1 651.1 684.2 652.95 681.8 653.95 679.4 655 676.6 655
L 670.65 655.05 670.65 628.6 676.6 628.6
Q 679.4 628.6 681.8 629.65 684.25 630.7 686.1 632.4 688 634.3 689 636.6
M 676.6 630
L 672.05 630 672.05 653.65 676.9 653.65
Q 679.4 653.65 681.5 652.7 683.65 651.8 685.2 650.15 686.75 648.55 687.75 646.35 688.65 644.2 688.65 641.7 688.65 639.2 687.7 637.15 686.75 635 685.05 633.4 683.35 631.8 681.2 630.9 679.05 630 676.6 630
M 675.1 632.95
L 676.7 632.95
Q 678.45 632.95 680.15 633.65 681.8 634.35 683 635.5 684.2 636.7 684.95 638.25 685.65 639.95 685.65 641.7 685.65 643.45 684.95 645.15 684.2 646.75 683 648.05 681.75 649.25 680.15 650 678.6 650.7 676.7 650.7
L 675.1 650.7 675.1 632.95 Z"/>
</g>

<g id="Layer1_5_FILL">
<path fill="#ED4339" stroke="none" d="
M 701.75 646.5
L 713.15 646.5 707.5 633.75 701.75 646.5
M 709.15 643.95
L 705.75 643.95 707.5 640.1 709.15 643.95
M 711.55 650.4
L 713.15 653.95 713.45 654.8
Q 713.6 655.3 713.55 655.8 713.45 656.35 713.2 656.75 712.75 657.25 712.1 657.6
L 718.15 657.6 713.7 647.85 701.2 647.85 696.85 657.6 702.8 657.6
Q 702.1 657.25 701.75 656.75 701.5 656.35 701.4 655.8 701.4 655.1 701.5 654.8
L 701.75 653.95 703.4 650.4 711.55 650.4
M 722.5 655.75
Q 721.55 654.35 720.95 653.05
L 707.5 624 694 653.05
Q 693.35 654.45 692.4 655.75 691.6 656.9 690.35 657.6
L 695.35 657.6 707.5 630.45 719.6 657.6 724.6 657.6
Q 723.35 656.9 722.5 655.75 Z"/>
</g>

<g id="Layer1_6_FILL">
<path fill="#ED4339" stroke="none" d="
M 749 627.9
Q 747.95 627.15 746.7 626.6 745.65 626.1 744.15 625.75 742.7 625.45 741.55 625.5 737.55 625.6 734.95 627.4 731.3 629.85 730.85 634.35
L 730.8 635.6
Q 730.9 638.1 731.65 639.6 732.5 641.2 733.65 642.1 734.95 643.15 736.3 643.65
L 739.15 644.65 739.4 644.7
Q 741.85 645.5 742.9 646.2 744.05 646.95 744.15 648.35 744.15 648.8 743.95 649.15 743.75 649.55 743.3 650 742.55 650.5 742.3 650.6 741.8 650.85 741.1 650.9 739.95 650.9 739.3 650.65
L 738.4 650.15
Q 737.8 649.75 737.45 649.15 737.1 648.65 736.85 647.9 736.55 647.05 736.45 646.3
L 736.4 646.3 733.6 649.25 733.6 649.3 734.05 650.05 735.35 651.6
Q 737.55 653.95 740.95 653.85
L 741.05 653.85 741.15 653.8 741.25 653.8
Q 742.6 653.8 743.7 653.35 744.9 652.9 745.65 652.15 746.35 651.6 746.95 650.45 747.4 649.45 747.35 648.35 747.35 644.8 744.55 643.45
L 738.15 641
Q 736.9 640.45 736.05 639.75 735.25 639.2 734.55 638.05 734 637.05 734 635.55 733.85 632.65 735.7 630.65 736.75 629.6 738.25 629 739.55 628.45 741.5 628.45
L 742.95 628.55
Q 743.95 628.65 745 629.05 746.2 629.55 747.25 630.3 748.45 631.1 749.25 632.6
L 751.2 630.2 751.2 630.15 750.75 629.55
Q 750.1 628.7 749 627.9
M 744.15 630.2
Q 743.1 629.8 741.35 629.8 740.1 629.75 738.85 630.15 737.75 630.55 736.95 631.3 736.1 632.05 735.75 633.15 735.35 634.1 735.35 635.55 735.4 636.8 735.9 637.65 736.3 638.35 737.15 639.05 737.9 639.6 738.8 639.95
L 740.7 640.55 740.8 640.6 742.15 641.1 742.45 641.15 744.1 641.75
Q 745.1 642.15 745.55 642.45 746.15 642.8 746.85 643.4 747.5 644.05 747.9 644.8
L 748.35 645.85 748.6 646.9 748.7 648.2
Q 748.7 650.95 747.05 652.65 745.95 653.8 744.35 654.5 742.7 655.15 741 655.2 739.15 655.25 737.4 654.55 735.75 653.9 734.5 652.55
L 733.6 651.55 732.7 650.25 730.35 652.7 730.35 652.75
Q 731.65 654.65 733.15 655.7 734.85 656.8 736.2 657.3 737.5 657.8 738.85 657.95
L 741.15 658.05
Q 742.9 658 744.65 657.5 746.45 656.95 747.65 656.05 749.75 654.7 750.8 652.6 751.95 650.6 751.85 648.1 751.8 645.2 750.75 643.45 749.7 641.65 748.3 640.55 746.7 639.35 745.3 638.85
L 742.5 637.95
Q 740.5 637.4 739.5 636.8 738.65 636.2 738.6 635.4
L 738.6 634.8
Q 738.7 633.75 739.5 633.15 740.3 632.6 741.65 632.65
L 742.4 632.75
Q 743.1 632.85 743.7 633.25 744.3 633.55 745 634.5 745.55 635.25 745.7 636.85
L 748.3 633.7 747.55 632.6
Q 747 631.85 746.2 631.3 745.05 630.55 744.15 630.2 Z"/>
</g>

<g id="Layer1_7_FILL">
<path fill="#E53439" stroke="none" d="
M 298.85 641.5
Q 298.85 638.7 300 636.5 301.2 634.3 303.3 633 305.45 631.7 308.05 631.7 310.5 631.7 312.7 632.65 315.1 633.65 316.7 634.85
L 318.6 627.75
Q 316.5 626.4 313.8 625.6 311.1 624.75 307.8 624.75 302.85 624.75 298.95 626.8 294.95 628.95 292.75 632.7 290.45 636.5 290.45 641.5 290.45 646.45 292.7 650.25 294.9 654.05 298.85 656.25 302.7 658.4 307.65 658.4 311.05 658.4 313.95 657.4 316.9 656.3 318.85 654.8
L 317.65 647.9
Q 313.35 651.3 308.35 651.3 305.4 651.3 303.35 650.05 301.2 648.85 300 646.6 298.85 644.4 298.85 641.5 Z"/>
</g>

<g id="Layer1_8_FILL">
<path fill="#E53439" stroke="none" d="
M 323.35 625.6
L 323.35 657.55 343.85 657.55 344.75 650.95 330.8 650.95 330.8 644.3 341.8 644.3 342.7 638.15 330.8 638.15 330.8 632.15 343.05 632.15 343.95 625.6 323.35 625.6 Z"/>
</g>

<g id="Layer1_9_FILL">
<path fill="#E53439" stroke="none" d="
M 357.15 625.6
L 349.4 625.6 349.4 657.55 368.6 657.55 369.5 650.8 357.15 650.8 357.15 625.6 Z"/>
</g>

<g id="Layer1_10_FILL">
<path fill="#E53439" stroke="none" d="
M 392.2 638.15
L 380.3 638.15 380.3 632.15 392.55 632.15 393.45 625.6 372.85 625.6 372.85 657.55 393.35 657.55 394.25 650.95 380.3 650.95 380.3 644.3 391.3 644.3 392.2 638.15 Z"/>
</g>

<g id="Layer1_11_FILL">
<path fill="#E53439" stroke="none" d="
M 421 643.25
Q 419.15 641.3 416.25 640.8
L 416.25 640.7
Q 418.65 639.9 420.1 638.15 421.5 636.4 421.5 633.8 421.5 629.35 418.3 627.5 415.15 625.6 410.65 625.6
L 398.8 625.6 398.8 657.55 410.65 657.55
Q 415.85 657.55 419.3 655.3 422.8 653.05 422.8 648.25 422.8 645.2 421 643.25
M 409.5 638.3
L 406.25 638.3 406.25 631.7 409.15 631.7
Q 411.65 631.7 412.85 632.45 414.05 633.2 414.05 634.85 414.05 636.5 412.85 637.4 411.65 638.3 409.5 638.3
M 409.7 651.3
L 406.25 651.3 406.25 644 409.65 644
Q 412.3 644 413.7 644.8 415.1 645.65 415.1 647.5 415.1 649.6 413.5 650.45 412 651.3 409.7 651.3 Z"/>
</g>

<g id="Layer1_12_FILL">
<path fill="#E53439" stroke="none" d="
M 447.95 641.2
Q 449.7 638.7 449.7 635.7 449.7 630.35 446.25 627.95 442.7 625.6 437.5 625.6
L 426.2 625.6 426.2 657.55 433.8 657.55 433.8 645.75 435.95 645.75 443.3 657.55 452.35 657.55 443.55 644.75
Q 446.2 643.85 447.95 641.2
M 436.5 640.15
L 433.75 640.15 433.75 631.8 436.95 631.8
Q 438.95 631.8 440.55 632.8 442.1 633.8 442.1 635.85 442.1 640.15 436.5 640.15 Z"/>
</g>

<g id="Layer1_13_FILL">
<path fill="#E53439" stroke="none" d="
M 470.3 625.6
L 462.8 625.6 449.4 657.55 457.8 657.55 460.6 650.05 472.05 650.05 475 657.55 483.55 657.55 470.3 625.6
M 469.95 643.85
L 462.8 643.85 466.4 634.1 469.95 643.85 Z"/>
</g>

<g id="Layer1_14_FILL">
<path fill="#E53439" stroke="none" d="
M 479.9 625.6
L 479 632.2 488.5 632.2 488.5 657.55 496.2 657.55 496.2 632.2 504.75 632.2 505.65 625.6 479.9 625.6 Z"/>
</g>

<g id="Layer1_15_FILL">
<path fill="#E53439" stroke="none" d="
M 528.6 632.15
L 529.5 625.6 508.9 625.6 508.9 657.55 529.4 657.55 530.3 650.95 516.35 650.95 516.35 644.3 527.35 644.3 528.3 638.15 516.35 638.15 516.35 632.15 528.6 632.15 Z"/>
</g>

<g id="Layer1_16_FILL">
<path fill="#ED4339" stroke="none" d="
M 783.6 633.05
L 789.05 633.15 790.25 633.4 791.5 634 792.8 635.05 791.9 630.35 780.55 630.35 780.55 657.95 785.75 657.95
Q 784.6 657.25 784.1 656.35 783.6 655.5 783.6 654.15
L 783.6 633.05
M 791.65 628.95
L 791.15 626.4 768.6 626.4 768.1 628.95 791.65 628.95
M 769.5 633.4
Q 770.8 633.05 772.05 633.05
L 776.15 633.05 776.15 654.15
Q 776.15 655.5 775.65 656.35 775.25 657.25 774 657.95
L 779.2 657.95 779.2 630.35 767.85 630.35 766.95 635.05
Q 768.4 633.8 769.5 633.4 Z"/>
</g>

<g id="Layer1_17_FILL">
<path fill="#ED4339" stroke="none" d="
M 804.85 650.65
L 804.85 644.65 810.45 644.65 811.85 644.9
Q 812.65 645.2 813.05 645.45 813.6 645.75 814 646.4
L 814 642.1 801.8 642.1 801.8 653.6 816.75 653.6 817.65 648.6 816.85 649.3
Q 816.55 649.6 815.85 649.95 815 650.3 814.5 650.4 813.65 650.65 812.7 650.65
L 804.85 650.65
M 795.15 626.4
Q 796.2 627 796.75 627.8 797.25 628.6 797.25 630.15
L 797.25 654.15
Q 797.25 655.75 796.75 656.55 796.2 657.35 795.15 657.95
L 815.95 657.95 816.5 655 800.3 655 800.3 629.35 815.6 629.35 815.1 626.4 795.15 626.4
M 801.75 630.75
L 801.75 640.75 814 640.75 814 636.4
Q 813.6 637.1 813 637.4 812.3 637.85 811.85 637.95 811.4 638.1 810.45 638.2
L 804.85 638.2 804.85 633.7 811.6 633.7
Q 813 633.8 813.65 633.95 814.3 634.05 815.35 634.45 816.05 634.75 816.65 635.4
L 815.85 630.75 801.75 630.75 Z"/>
</g>

<g id="Layer1_18_FILL">
<path fill="#ED4339" stroke="none" d="
M 829.5 646.85
L 840.85 646.85 835.2 634.1 829.5 646.85
M 836.85 644.3
L 833.45 644.3 835.2 640.45 836.85 644.3
M 850.2 656.05
Q 849.3 654.8 848.65 653.4
L 835.2 624.35 821.7 653.4
Q 821.05 654.9 820.1 656.05 819.25 657.25 818.05 657.95
L 823.05 657.95 835.2 630.8 847.35 657.95 852.3 657.95
Q 851.15 657.3 850.2 656.05
M 840.85 654.3
L 841.15 655.15
Q 841.3 655.65 841.25 656.15 841.15 656.7 840.9 657.1 840.6 657.55 839.8 657.95
L 845.85 657.95 841.45 648.2 828.9 648.2 824.55 657.95 830.5 657.95
Q 829.75 657.55 829.45 657.1 829.2 656.7 829.1 656.15 829.1 655.45 829.2 655.15
L 829.5 654.3 831.1 650.75 839.25 650.75 840.85 654.3 Z"/>
</g>

<g id="Layer1_19_FILL">
<path fill="#ED4339" stroke="none" d="
M 877.6 644.55
L 879.65 654.25
Q 879.85 655.2 879.7 655.7 879.65 656.25 879.35 656.8 879.15 657.2 878.8 657.55
L 878.15 657.95 883.95 657.95 878.55 636.4 870.25 653.55 861.85 636.4 856.5 657.95 862.3 657.95 861.65 657.55
Q 861.3 657.25 861.05 656.8 860.9 656.5 860.7 655.7 860.6 654.95 860.8 654.25
L 862.85 644.55 870.25 658.85 877.6 644.55
M 888.3 655.8
L 887.85 654.75 879.85 624.65 870.25 644.4 860.65 624.65 852.55 654.75 852.15 655.8
Q 851.85 656.4 851.65 656.6
L 850.95 657.3 849.85 657.95 855 657.95 861.45 632.45 870.25 650.4 878.95 632.45 885.45 657.95 890.6 657.95 889.5 657.3 888.75 656.6
Q 888.4 656.15 888.3 655.8 Z"/>
</g>

<g id="Layer1_20_FILL">
<path fill="#E53439" stroke="none" d="
M 261.75 639.4
L 262.1 642 258.5 642.4 261.35 644.5 259.95 646.9 267.8 647.7 266.2 650.75 272.2 648.05 272.45 650.5 275.15 649.3 273.5 647.45 279.5 644.75 276.15 643.95 280.75 637.55 278.05 637 278.35 633.45 275.65 635.9 273.95 633.95 272 639.55 270.45 631.3 268.5 633.95 265.25 630.85 265.4 635.35 262.1 635.05 267.25 641.7 261.75 639.4 Z"/>
</g>

<g id="Layer1_21_FILL">
<path fill="#E53439" stroke="none" d="
M 900.05 636.25
L 897.35 633.8 897.65 637.35 895 637.9 899.55 644.3 896.2 645.1 902.25 647.8 900.55 649.65 903.25 650.9 903.5 648.4 909.55 651.1 907.9 648.05 915.75 647.25 914.35 644.85 917.2 642.75 913.6 642.35 913.95 639.8 908.45 642.05 913.6 635.4 910.35 635.7 910.5 631.2 907.2 634.3 905.25 631.65 903.7 639.95 901.75 634.3 900.05 636.25 Z"/>
</g>
</defs>

<g transform="matrix( 1, 0, 0, 1, -239.5,-591.4) ">
<use xlink:href="#Layer1_0_FILL"/>
</g>

<g transform="matrix( 1, 0, 0, 1, -239.5,-591.4) ">
<use xlink:href="#Layer1_1_FILL"/>
</g>

<g transform="matrix( 1, 0, 0, 1, -239.5,-591.4) ">
<use xlink:href="#Layer1_2_FILL"/>
</g>

<g transform="matrix( 1, 0, 0, 1, -239.5,-591.4) ">
<use xlink:href="#Layer1_3_FILL"/>
</g>

<g transform="matrix( 1, 0, 0, 1, -239.5,-591.4) ">
<use xlink:href="#Layer1_4_FILL"/>
</g>

<g transform="matrix( 1, 0, 0, 1, -239.5,-591.4) ">
<use xlink:href="#Layer1_5_FILL"/>
</g>

<g transform="matrix( 1, 0, 0, 1, -239.5,-591.4) ">
<use xlink:href="#Layer1_6_FILL"/>
</g>

<g transform="matrix( 1, 0, 0, 1, -239.5,-591.4) ">
<use xlink:href="#Layer1_7_FILL"/>
</g>

<g transform="matrix( 1, 0, 0, 1, -239.5,-591.4) ">
<use xlink:href="#Layer1_8_FILL"/>
</g>

<g transform="matrix( 1, 0, 0, 1, -239.5,-591.4) ">
<use xlink:href="#Layer1_9_FILL"/>
</g>

<g transform="matrix( 1, 0, 0, 1, -239.5,-591.4) ">
<use xlink:href="#Layer1_10_FILL"/>
</g>

<g transform="matrix( 1, 0, 0, 1, -239.5,-591.4) ">
<use xlink:href="#Layer1_11_FILL"/>
</g>

<g transform="matrix( 1, 0, 0, 1, -239.5,-591.4) ">
<use xlink:href="#Layer1_12_FILL"/>
</g>

<g transform="matrix( 1, 0, 0, 1, -239.5,-591.4) ">
<use xlink:href="#Layer1_13_FILL"/>
</g>

<g transform="matrix( 1, 0, 0, 1, -239.5,-591.4) ">
<use xlink:href="#Layer1_14_FILL"/>
</g>

<g transform="matrix( 1, 0, 0, 1, -239.5,-591.4) ">
<use xlink:href="#Layer1_15_FILL"/>
</g>

<g transform="matrix( 1, 0, 0, 1, -239.5,-591.4) ">
<use xlink:href="#Layer1_16_FILL"/>
</g>

<g transform="matrix( 1, 0, 0, 1, -239.5,-591.4) ">
<use xlink:href="#Layer1_17_FILL"/>
</g>

<g transform="matrix( 1, 0, 0, 1, -239.5,-591.4) ">
<use xlink:href="#Layer1_18_FILL"/>
</g>

<g transform="matrix( 1, 0, 0, 1, -239.5,-591.4) ">
<use xlink:href="#Layer1_19_FILL"/>
</g>

<g transform="matrix( 1, 0, 0, 1, -239.5,-591.4) ">
<use xlink:href="#Layer1_20_FILL"/>
</g>

<g transform="matrix( 1, 0, 0, 1, -239.5,-591.4) ">
<use xlink:href="#Layer1_21_FILL"/>
</g>
</svg>
