
<svg xmlns="http://www.w3.org/2000/svg" version="1.1" xmlns:xlink="http://www.w3.org/1999/xlink" preserveAspectRatio="none" x="0px" y="0px" width="550px" height="100px" viewBox="0 0 550 100">
<defs>
<g id="Layer4_0_FILL">
<path fill="#FFFFFF" stroke="none" d="
M 8.9 -8.65
L 8.95 -8.65 12 1.7 13.9 1.7 17.6 -11.05 15.75 -11.05 12.9 -0.75 12.85 -0.75 9.9 -11.05 7.9 -11.05 5 -0.75 4.95 -0.75 2.2 -11.05 0.25 -11.05 3.95 1.7 5.85 1.7 8.9 -8.65 Z"/>
</g>

<g id="Layer4_1_FILL">
<path fill="#FFFFFF" stroke="none" d="
M 27.8 -7.45
Q 27.8 -9.35 26.5 -10.2 25.35 -11.05 23.35 -11.05
L 19.45 -11.05 19.45 1.7 21.25 1.7 21.25 -3.6 23.2 -3.6 26.45 1.7 28.6 1.7 25 -3.85
Q 26.15 -4.15 27 -5.15 27.8 -6.2 27.8 -7.45
M 21.25 -9.55
L 23.1 -9.55
Q 24.45 -9.55 25.15 -9.05 26 -8.6 26 -7.4 26 -6.3 25.2 -5.6 24.4 -5 23.15 -5
L 21.25 -5 21.25 -9.55 Z"/>
</g>

<g id="Layer4_2_FILL">
<path fill="#FFFFFF" stroke="none" d="
M 32.6 -11.05
L 30.75 -11.05 30.75 1.7 32.6 1.7 32.6 -11.05 Z"/>
</g>

<g id="Layer4_3_FILL">
<path fill="#FFFFFF" stroke="none" d="
M 34.45 -11.05
L 34.2 -9.5 38.15 -9.5 38.15 1.7 39.95 1.7 39.95 -9.5 43.65 -9.5 43.95 -11.05 34.45 -11.05 Z"/>
</g>

<g id="Layer4_4_FILL">
<path fill="#FFFFFF" stroke="none" d="
M 47.3 -4.15
L 52.15 -4.15 52.4 -5.6 47.3 -5.6 47.3 -9.5 52.6 -9.5 52.85 -11.05 45.5 -11.05 45.5 1.7 52.9 1.7 53.15 0.1 47.3 0.1 47.3 -4.15 Z"/>
</g>

<g id="Layer4_5_FILL">
<path fill="#FFFFFF" stroke="none" d="
M 64.4 -3.8
L 69.1 -11.05 67 -11.05 63.6 -5.35 60.15 -11.05 57.95 -11.05 62.6 -3.8 62.6 1.7 64.4 1.7 64.4 -3.8 Z"/>
</g>

<g id="Layer4_6_FILL">
<path fill="#FFFFFF" stroke="none" d="
M 70.35 -8.2
Q 69.5 -6.65 69.5 -4.7 69.5 -2.8 70.35 -1.2 71.3 0.35 72.8 1.15 74.3 2.05 76.25 2.05 78.2 2.05 79.7 1.15 81.25 0.35 82.1 -1.2 83 -2.75 83 -4.7 83 -6.7 82.1 -8.2 81.25 -9.75 79.7 -10.55 78.15 -11.4 76.25 -11.4 74.35 -11.4 72.8 -10.55 71.3 -9.75 70.35 -8.2
M 76.25 -9.75
Q 77.65 -9.75 78.75 -9.1 79.9 -8.35 80.45 -7.25 81.05 -6.1 81.05 -4.7 81.05 -3.3 80.45 -2.1 79.85 -0.95 78.75 -0.3 77.65 0.35 76.25 0.35 74.85 0.35 73.75 -0.3 72.65 -0.95 72.05 -2.1 71.45 -3.3 71.45 -4.7 71.45 -6.1 72.05 -7.25 72.65 -8.45 73.75 -9.1 74.85 -9.75 76.25 -9.75 Z"/>
</g>

<g id="Layer4_7_FILL">
<path fill="#FFFFFF" stroke="none" d="
M 88 -0.7
Q 87.25 -1.75 87.25 -3.3
L 87.25 -11.05 85.45 -11.05 85.45 -3.1
Q 85.45 -1.55 86 -0.5 86.5 0.65 87.7 1.35 88.85 2.05 90.55 2.05 92.15 2.05 93.4 1.35 94.6 0.65 95.1 -0.5 95.7 -1.6 95.7 -3.1
L 95.7 -11.05 93.85 -11.05 93.85 -3.3
Q 93.85 -1.75 93.1 -0.7 92.35 0.4 90.55 0.4 88.75 0.4 88 -0.7 Z"/>
</g>

<g id="Layer4_8_FILL">
<path fill="#FFFFFF" stroke="none" d="
M 104.25 -3.85
Q 105.4 -4.15 106.25 -5.15 107.05 -6.1 107.05 -7.45 107.05 -9.4 105.8 -10.2 104.6 -11.05 102.6 -11.05
L 98.7 -11.05 98.7 1.7 100.5 1.7 100.5 -3.6 102.5 -3.6 105.7 1.7 107.85 1.7 104.25 -3.85
M 100.5 -5
L 100.5 -9.55 102.4 -9.55
Q 103.65 -9.55 104.45 -9.05 105.25 -8.6 105.25 -7.4 105.25 -6.25 104.45 -5.6 103.65 -5 102.4 -5
L 100.5 -5 Z"/>
</g>

<g id="Layer4_9_FILL">
<path fill="#FFFFFF" stroke="none" d="
M 116.5 -7.25
Q 117.1 -8.45 118.2 -9.1 119.35 -9.75 120.7 -9.75 121.75 -9.75 122.8 -9.35 123.75 -8.95 124.55 -8.3
L 125.05 -10
Q 124.25 -10.65 123.1 -11 121.8 -11.4 120.65 -11.4 118.75 -11.4 117.2 -10.55 115.65 -9.75 114.8 -8.2 113.9 -6.6 113.9 -4.7 113.9 -2.8 114.75 -1.25 115.65 0.35 117.15 1.15 118.75 2.05 120.6 2.05 121.8 2.05 123.15 1.55 124.3 1.1 125.1 0.4
L 124.75 -1.2
Q 123.9 -0.45 122.95 -0.1 122 0.35 120.7 0.35 119.2 0.35 118.2 -0.3 117.05 -1 116.45 -2.1 115.85 -3.3 115.85 -4.7 115.85 -6.15 116.5 -7.25 Z"/>
</g>

<g id="Layer4_10_FILL">
<path fill="#FFFFFF" stroke="none" d="
M 129.15 -4.15
L 136.15 -4.15 136.15 1.7 137.95 1.7 137.95 -11.05 136.15 -11.05 136.15 -5.7 129.15 -5.7 129.15 -11.05 127.3 -11.05 127.3 1.7 129.15 1.7 129.15 -4.15 Z"/>
</g>

<g id="Layer4_11_FILL">
<path fill="#FFFFFF" stroke="none" d="
M 142.9 -4.15
L 147.75 -4.15 148 -5.6 142.9 -5.6 142.9 -9.5 148.2 -9.5 148.5 -11.05 141.15 -11.05 141.15 1.7 148.5 1.7 148.75 0.1 142.9 0.1 142.9 -4.15 Z"/>
</g>

<g id="Layer4_12_FILL">
<path fill="#FFFFFF" stroke="none" d="
M 152.95 -4.15
L 157.75 -4.15 158.05 -5.6 152.95 -5.6 152.95 -9.5 158.25 -9.5 158.5 -11.05 151.15 -11.05 151.15 1.7 158.5 1.7 158.8 0.1 152.95 0.1 152.95 -4.15 Z"/>
</g>

<g id="Layer4_13_FILL">
<path fill="#FFFFFF" stroke="none" d="
M 169.55 -7.45
Q 169.55 -9.35 168.25 -10.2 167.1 -11.05 165.1 -11.05
L 161.2 -11.05 161.2 1.7 163 1.7 163 -3.6 164.95 -3.6 168.2 1.7 170.35 1.7 166.75 -3.85
Q 167.9 -4.15 168.75 -5.15 169.55 -6.2 169.55 -7.45
M 163 -9.55
L 164.85 -9.55
Q 166.2 -9.55 166.9 -9.05 167.75 -8.6 167.75 -7.4 167.75 -6.3 166.95 -5.6 166.15 -5 164.9 -5
L 163 -5 163 -9.55 Z"/>
</g>
</defs>

<g transform="matrix( 1, 0, 0, 1, 184.75,56.8) ">
<use xlink:href="#Layer4_0_FILL"/>
</g>

<g transform="matrix( 1, 0, 0, 1, 184.75,56.8) ">
<use xlink:href="#Layer4_1_FILL"/>
</g>

<g transform="matrix( 1, 0, 0, 1, 184.75,56.8) ">
<use xlink:href="#Layer4_2_FILL"/>
</g>

<g transform="matrix( 1, 0, 0, 1, 184.75,56.8) ">
<use xlink:href="#Layer4_3_FILL"/>
</g>

<g transform="matrix( 1, 0, 0, 1, 184.75,56.8) ">
<use xlink:href="#Layer4_4_FILL"/>
</g>

<g transform="matrix( 1, 0, 0, 1, 184.75,56.8) ">
<use xlink:href="#Layer4_5_FILL"/>
</g>

<g transform="matrix( 1, 0, 0, 1, 184.75,56.8) ">
<use xlink:href="#Layer4_6_FILL"/>
</g>

<g transform="matrix( 1, 0, 0, 1, 184.75,56.8) ">
<use xlink:href="#Layer4_7_FILL"/>
</g>

<g transform="matrix( 1, 0, 0, 1, 184.75,56.8) ">
<use xlink:href="#Layer4_8_FILL"/>
</g>

<g transform="matrix( 1, 0, 0, 1, 184.75,56.8) ">
<use xlink:href="#Layer4_9_FILL"/>
</g>

<g transform="matrix( 1, 0, 0, 1, 184.75,56.8) ">
<use xlink:href="#Layer4_10_FILL"/>
</g>

<g transform="matrix( 1, 0, 0, 1, 184.75,56.8) ">
<use xlink:href="#Layer4_11_FILL"/>
</g>

<g transform="matrix( 1, 0, 0, 1, 184.75,56.8) ">
<use xlink:href="#Layer4_12_FILL"/>
</g>

<g transform="matrix( 1, 0, 0, 1, 184.75,56.8) ">
<use xlink:href="#Layer4_13_FILL"/>
</g>
</svg>
