
<svg xmlns="http://www.w3.org/2000/svg" version="1.1" xmlns:xlink="http://www.w3.org/1999/xlink" preserveAspectRatio="none" x="0px" y="0px" width="550px" height="100px" viewBox="0 0 550 100">
<defs>
<g id="Comps_working_psd_Asset_lightbox_Join_fans_across_the_country_and_celebrate_Canada_s_team__Write_0_Layer0_0_MEMBER_0_FILL">
<path fill="#333333" stroke="none" d="
M -236.35 -2.3
Q -236.35 -1.05 -236.9 -0.35 -237.4 0.35 -238.6 0.35
L -239.65 0.2 -239.35 1.95
Q -239.05 2 -238.3 2 -236.45 2 -235.45 0.85 -234.5 -0.3 -234.5 -2.15
L -234.5 -11.05 -236.35 -11.05 -236.35 -2.3 Z"/>
</g>

<g id="Comps_working_psd_Asset_lightbox_Join_fans_across_the_country_and_celebrate_Canada_s_team__Write_0_Layer0_0_MEMBER_1_FILL">
<path fill="#333333" stroke="none" d="
M -225.05 -6.65
Q -226.15 -7.2 -227.45 -7.2 -228.7 -7.2 -229.8 -6.65 -230.95 -6 -231.5 -5.05 -232.1 -4 -232.1 -2.65 -232.1 -1.3 -231.5 -0.25 -230.9 0.8 -229.8 1.35 -228.75 1.95 -227.45 1.95 -226.1 1.95 -225.05 1.35 -224 0.85 -223.4 -0.25 -222.75 -1.4 -222.75 -2.65 -222.75 -3.9 -223.4 -5.05 -223.95 -6 -225.05 -6.65
M -230 -4.2
Q -229.7 -4.9 -229 -5.35 -228.3 -5.75 -227.45 -5.75 -226.55 -5.75 -225.85 -5.35 -225.25 -4.9 -224.85 -4.2 -224.5 -3.55 -224.5 -2.65 -224.5 -1.75 -224.85 -1.1 -225.15 -0.45 -225.85 0.05 -226.55 0.45 -227.45 0.45 -228.3 0.45 -229 0.05 -229.75 -0.45 -230 -1.1 -230.35 -1.75 -230.35 -2.65 -230.35 -3.55 -230 -4.2 Z"/>
</g>

<g id="Comps_working_psd_Asset_lightbox_Join_fans_across_the_country_and_celebrate_Canada_s_team__Write_0_Layer0_0_MEMBER_2_FILL">
<path fill="#333333" stroke="none" d="
M -218.6 -6.95
L -220.35 -6.95 -220.35 1.7 -218.6 1.7 -218.6 -6.95
M -218.7 -10.9
Q -219.05 -11.2 -219.5 -11.2 -219.95 -11.2 -220.25 -10.9 -220.6 -10.55 -220.6 -10.1 -220.6 -9.7 -220.25 -9.35 -219.95 -9.05 -219.5 -9.05 -219.05 -9.05 -218.7 -9.35 -218.4 -9.65 -218.4 -10.1 -218.4 -10.6 -218.7 -10.9 Z"/>
</g>

<g id="Comps_working_psd_Asset_lightbox_Join_fans_across_the_country_and_celebrate_Canada_s_team__Write_0_Layer0_0_MEMBER_3_FILL">
<path fill="#333333" stroke="none" d="
M -214.05 -6.95
L -215.7 -6.95 -215.65 1.7 -213.85 1.7 -213.85 -2.85
Q -213.85 -4.15 -213.2 -4.95 -212.55 -5.75 -211.5 -5.75 -210.45 -5.75 -210 -5 -209.55 -4.3 -209.55 -3.2
L -209.55 1.7 -207.8 1.7 -207.8 -3.6
Q -207.8 -5.2 -208.6 -6.15 -209.35 -7.2 -211 -7.2 -211.85 -7.2 -212.75 -6.7 -213.5 -6.2 -213.9 -5.35
L -213.95 -5.35
Q -213.95 -6.2 -214.05 -6.95 Z"/>
</g>

<g id="Comps_working_psd_Asset_lightbox_Join_fans_across_the_country_and_celebrate_Canada_s_team__Write_0_Layer0_0_MEMBER_4_FILL">
<path fill="#333333" stroke="none" d="
M -196.65 -10.75
Q -196.1 -10.75 -195.35 -10.6
L -195.2 -12
Q -195.85 -12.2 -196.85 -12.2 -198.3 -12.2 -199.15 -11.3 -199.9 -10.4 -199.9 -8.8
L -199.9 -6.95 -201.4 -6.95 -201.7 -5.6 -199.9 -5.6 -199.9 1.7 -198.15 1.7 -198.15 -5.6 -196.2 -5.6 -195.9 -6.95 -198.15 -6.95 -198.15 -8.8
Q -198.15 -9.7 -197.8 -10.2 -197.45 -10.75 -196.65 -10.75 Z"/>
</g>

<g id="Comps_working_psd_Asset_lightbox_Join_fans_across_the_country_and_celebrate_Canada_s_team__Write_0_Layer0_0_MEMBER_5_FILL">
<path fill="#333333" stroke="none" d="
M -193.6 -2.95
Q -195 -2.35 -195 -0.7 -195 0.65 -194.2 1.25 -193.4 1.9 -192.3 1.9 -191.25 1.9 -190.5 1.5 -189.65 1.05 -189.3 0.3
L -189.25 0.3 -189.1 1.7 -187.55 1.7 -187.65 -3.7
Q -187.65 -5.45 -188.55 -6.35 -189.5 -7.2 -191.1 -7.2 -193 -7.2 -194.55 -6.2
L -194.1 -4.9
Q -193.45 -5.35 -192.85 -5.6 -192.1 -5.9 -191.4 -5.9 -190.5 -5.9 -189.9 -5.4 -189.35 -4.9 -189.35 -3.95
L -189.35 -3.6 -190.05 -3.6
Q -192.05 -3.6 -193.6 -2.95
M -189.3 -1.85
Q -189.3 -1.15 -189.6 -0.65 -189.85 -0.1 -190.45 0.3 -191.1 0.7 -191.85 0.7 -192.45 0.7 -192.9 0.35 -193.35 0 -193.35 -0.75 -193.35 -2.55 -190 -2.55
L -189.3 -2.55 -189.3 -1.85 Z"/>
</g>

<g id="Comps_working_psd_Asset_lightbox_Join_fans_across_the_country_and_celebrate_Canada_s_team__Write_0_Layer0_0_MEMBER_6_FILL">
<path fill="#333333" stroke="none" d="
M -183.2 -6.95
L -184.9 -6.95 -184.8 1.7 -183.05 1.7 -183.05 -2.85
Q -183.05 -4.15 -182.4 -4.95 -181.75 -5.75 -180.7 -5.75 -179.65 -5.75 -179.2 -5 -178.75 -4.3 -178.75 -3.2
L -178.75 1.7 -177 1.7 -177 -3.6
Q -177 -5.15 -177.75 -6.15 -178.55 -7.2 -180.15 -7.2 -181.05 -7.2 -181.95 -6.7 -182.7 -6.2 -183.1 -5.35
L -183.2 -6.95 Z"/>
</g>

<g id="Comps_working_psd_Asset_lightbox_Join_fans_across_the_country_and_celebrate_Canada_s_team__Write_0_Layer0_0_MEMBER_7_FILL">
<path fill="#333333" stroke="none" d="
M -174.6 -4.65
Q -174.6 -3.6 -173.95 -3.1 -173.35 -2.5 -172.1 -2.2 -170.85 -1.8 -170.5 -1.5 -170 -1.2 -170 -0.65 -170 0 -170.5 0.3 -170.95 0.6 -171.7 0.6 -173.25 0.6 -174.5 -0.35
L -174.75 1.05
Q -174.2 1.45 -173.35 1.65 -172.5 1.95 -171.55 1.95 -170.65 1.95 -170 1.65 -169.25 1.35 -168.8 0.75 -168.3 0.1 -168.3 -0.75 -168.3 -1.75 -169 -2.35 -169.7 -2.9 -171 -3.3
L -172.55 -3.9
Q -172.95 -4.15 -172.95 -4.75 -172.95 -5.3 -172.5 -5.6 -172.05 -5.9 -171.4 -5.9 -170.8 -5.9 -170.25 -5.7 -169.35 -5.2 -169.25 -5.1
L -168.6 -6.3
Q -169 -6.65 -169.85 -6.95 -170.7 -7.2 -171.5 -7.2 -172.15 -7.2 -173 -6.95 -173.7 -6.65 -174.15 -6.05 -174.6 -5.5 -174.6 -4.65 Z"/>
</g>

<g id="Comps_working_psd_Asset_lightbox_Join_fans_across_the_country_and_celebrate_Canada_s_team__Write_0_Layer0_0_MEMBER_8_FILL">
<path fill="#333333" stroke="none" d="
M -158.3 -7.2
Q -160.25 -7.2 -161.7 -6.2
L -161.25 -4.9
Q -160.6 -5.35 -160 -5.6 -159.25 -5.9 -158.6 -5.9 -157.7 -5.9 -157.05 -5.4 -156.5 -4.85 -156.5 -3.95
L -156.5 -3.6 -157.2 -3.6
Q -159.2 -3.6 -160.75 -2.95 -162.15 -2.35 -162.15 -0.7 -162.15 0.65 -161.35 1.25 -160.65 1.9 -159.45 1.9 -158.45 1.9 -157.7 1.5 -156.8 1.05 -156.5 0.3
L -156.45 0.3 -156.3 1.7 -154.7 1.7
Q -154.85 1.05 -154.85 -0.1
L -154.85 -3.7
Q -154.85 -5.45 -155.75 -6.35 -156.7 -7.2 -158.3 -7.2
M -160.55 -0.75
Q -160.55 -2.55 -157.15 -2.55
L -156.45 -2.55 -156.45 -1.85
Q -156.45 -1.15 -156.75 -0.65 -157.05 -0.1 -157.65 0.3 -158.2 0.7 -159 0.7 -159.55 0.7 -160.1 0.35 -160.55 0 -160.55 -0.75 Z"/>
</g>

<g id="Comps_working_psd_Asset_lightbox_Join_fans_across_the_country_and_celebrate_Canada_s_team__Write_0_Layer0_0_MEMBER_9_FILL">
<path fill="#333333" stroke="none" d="
M -152.6 -2.65
Q -152.6 -1.3 -152 -0.25 -151.4 0.85 -150.35 1.35 -149.3 1.95 -148.05 1.95 -147.1 1.95 -146.3 1.65 -145.55 1.4 -145 0.9
L -145.25 -0.5
Q -145.6 -0.15 -146.4 0.25 -146.95 0.45 -147.8 0.45 -148.7 0.45 -149.4 0.05 -150.15 -0.45 -150.4 -1.1 -150.8 -1.8 -150.8 -2.65 -150.8 -3.3 -150.45 -4.2 -150.05 -4.9 -149.4 -5.35 -148.75 -5.75 -147.9 -5.75 -147.25 -5.75 -146.7 -5.55 -146.2 -5.35 -145.65 -4.9
L -145 -6.25
Q -145.5 -6.65 -146.3 -6.95 -147.2 -7.2 -147.95 -7.2 -149.2 -7.2 -150.3 -6.65 -151.35 -6.05 -151.95 -5 -152.6 -3.85 -152.6 -2.65 Z"/>
</g>

<g id="Comps_working_psd_Asset_lightbox_Join_fans_across_the_country_and_celebrate_Canada_s_team__Write_0_Layer0_0_MEMBER_10_FILL">
<path fill="#333333" stroke="none" d="
M -143.2 -6.95
Q -143.1 -6.45 -143.1 -4.8
L -143.1 1.7 -141.35 1.7 -141.35 -2.65
Q -141.35 -3.85 -140.75 -4.75 -140.2 -5.65 -139.15 -5.65
L -138.4 -5.55 -138.1 -7.05
Q -138.45 -7.2 -139.05 -7.2 -139.75 -7.2 -140.4 -6.7 -141.05 -6.2 -141.35 -5.3
L -141.4 -5.3 -141.5 -6.95 -143.2 -6.95 Z"/>
</g>

<g id="Comps_working_psd_Asset_lightbox_Join_fans_across_the_country_and_celebrate_Canada_s_team__Write_0_Layer0_0_MEMBER_11_FILL">
<path fill="#333333" stroke="none" d="
M -137.5 -2.65
Q -137.5 -1.3 -136.9 -0.25 -136.2 0.85 -135.2 1.35 -134.15 1.95 -132.85 1.95 -131.5 1.95 -130.45 1.35 -129.4 0.85 -128.8 -0.25 -128.15 -1.25 -128.15 -2.65 -128.15 -4.05 -128.8 -5.05 -129.35 -6 -130.45 -6.65 -131.55 -7.2 -132.85 -7.2 -134.1 -7.2 -135.2 -6.65 -136.25 -6.05 -136.9 -5.05 -137.5 -4 -137.5 -2.65
M -134.4 -5.35
Q -133.7 -5.75 -132.85 -5.75 -131.95 -5.75 -131.25 -5.35 -130.65 -4.95 -130.25 -4.2 -129.9 -3.55 -129.9 -2.65 -129.9 -1.75 -130.25 -1.1 -130.6 -0.35 -131.25 0.05 -131.95 0.45 -132.85 0.45 -133.7 0.45 -134.4 0.05 -135.15 -0.45 -135.4 -1.1 -135.75 -1.75 -135.75 -2.65 -135.75 -3.55 -135.4 -4.2 -135.1 -4.9 -134.4 -5.35 Z"/>
</g>

<g id="Comps_working_psd_Asset_lightbox_Join_fans_across_the_country_and_celebrate_Canada_s_team__Write_0_Layer0_0_MEMBER_12_FILL">
<path fill="#333333" stroke="none" d="
M -123.15 -7.2
Q -123.8 -7.2 -124.65 -6.95 -125.35 -6.65 -125.8 -6.05 -126.25 -5.5 -126.25 -4.65 -126.25 -3.6 -125.6 -3.1 -125.05 -2.55 -123.8 -2.2 -122.5 -1.8 -122.15 -1.5 -121.65 -1.2 -121.65 -0.65 -121.65 0 -122.15 0.3 -122.65 0.6 -123.35 0.6 -124.9 0.6 -126.15 -0.35
L -126.4 1.05
Q -125.85 1.45 -125.05 1.65 -124.15 1.95 -123.2 1.95 -122.4 1.95 -121.65 1.65 -120.9 1.35 -120.45 0.75 -120 0.15 -120 -0.75 -120 -1.75 -120.65 -2.35 -121.4 -2.95 -122.7 -3.3
L -124.2 -3.9
Q -124.6 -4.15 -124.6 -4.75 -124.6 -5.3 -124.15 -5.6 -123.7 -5.9 -123.05 -5.9 -122.45 -5.9 -121.9 -5.7 -121 -5.2 -120.9 -5.1
L -120.25 -6.3
Q -120.6 -6.6 -121.5 -6.95 -122.35 -7.2 -123.15 -7.2 Z"/>
</g>

<g id="Comps_working_psd_Asset_lightbox_Join_fans_across_the_country_and_celebrate_Canada_s_team__Write_0_Layer0_0_MEMBER_13_FILL">
<path fill="#333333" stroke="none" d="
M -113.45 -6.95
Q -114.3 -7.2 -115.1 -7.2 -115.75 -7.2 -116.6 -6.95 -117.3 -6.65 -117.75 -6.05 -118.2 -5.5 -118.2 -4.65 -118.2 -3.6 -117.55 -3.1 -117 -2.55 -115.75 -2.2 -114.45 -1.8 -114.1 -1.5 -113.6 -1.2 -113.6 -0.65 -113.6 0 -114.1 0.3 -114.6 0.6 -115.3 0.6 -116.85 0.6 -118.1 -0.35
L -118.4 1.05
Q -117.9 1.4 -117 1.65 -116.1 1.95 -115.15 1.95 -114.35 1.95 -113.6 1.65 -112.85 1.35 -112.4 0.75 -111.95 0.15 -111.95 -0.75 -111.95 -1.75 -112.6 -2.35 -113.35 -2.95 -114.65 -3.3
L -116.15 -3.9
Q -116.6 -4.2 -116.6 -4.75 -116.6 -5.3 -116.15 -5.6 -115.7 -5.9 -115 -5.9 -114.35 -5.9 -113.9 -5.7 -113.05 -5.3 -112.85 -5.1
L -112.2 -6.3
Q -112.55 -6.6 -113.45 -6.95 Z"/>
</g>

<g id="Comps_working_psd_Asset_lightbox_Join_fans_across_the_country_and_celebrate_Canada_s_team__Write_0_Layer0_0_MEMBER_14_FILL">
<path fill="#333333" stroke="none" d="
M -104.95 -5.6
L -104.95 -0.7
Q -104.95 0.5 -104.4 1.2 -103.8 1.9 -102.7 1.9 -101.55 1.9 -100.6 1.4
L -100.85 0.15
Q -101.5 0.5 -102.1 0.5 -103.25 0.5 -103.25 -0.95
L -103.25 -5.6 -101.15 -5.6 -100.85 -6.95 -103.25 -6.95 -103.25 -9.35 -105 -8.9 -105 -6.95 -106.25 -6.95 -106.5 -5.6 -104.95 -5.6 Z"/>
</g>

<g id="Comps_working_psd_Asset_lightbox_Join_fans_across_the_country_and_celebrate_Canada_s_team__Write_0_Layer0_0_MEMBER_15_FILL">
<path fill="#333333" stroke="none" d="
M -94.25 -7.2
Q -95.3 -7.2 -96 -6.7 -96.8 -6.2 -97.15 -5.4
L -97.15 -12.15 -98.9 -11.9 -98.9 1.7 -97.15 1.7 -97.15 -2.7
Q -97.15 -4.1 -96.5 -4.9 -95.8 -5.75 -94.8 -5.75 -93.75 -5.75 -93.3 -5 -92.85 -4.3 -92.85 -3.2
L -92.85 1.7 -91.1 1.7 -91.1 -3.6
Q -91.1 -5.15 -91.85 -6.15 -92.65 -7.2 -94.25 -7.2 Z"/>
</g>

<g id="Comps_working_psd_Asset_lightbox_Join_fans_across_the_country_and_celebrate_Canada_s_team__Write_0_Layer0_0_MEMBER_16_FILL">
<path fill="#333333" stroke="none" d="
M -82.2 -6.65
Q -83.15 -7.2 -84.4 -7.2 -85.55 -7.2 -86.65 -6.65 -87.65 -6 -88.25 -5 -88.8 -4.1 -88.8 -2.65 -88.8 -1.35 -88.25 -0.25 -87.65 0.85 -86.6 1.35 -85.55 1.95 -84.25 1.95 -82.3 1.95 -80.75 0.95
L -81 -0.4
Q -81.4 -0.1 -82.4 0.3 -83.1 0.55 -84.05 0.55 -84.95 0.55 -85.6 0.2 -86.35 -0.2 -86.7 -0.8 -87.05 -1.35 -87.15 -2.25
L -80.25 -2.25 -80.2 -2.8
Q -80.2 -3.95 -80.7 -5.05 -81.2 -6.05 -82.2 -6.65
M -87.15 -3.4
Q -87.05 -4.1 -86.75 -4.6 -86.5 -5.1 -85.8 -5.55 -85.15 -5.95 -84.4 -5.95 -83.25 -5.95 -82.55 -5.25 -81.85 -4.45 -81.85 -3.4
L -87.15 -3.4 Z"/>
</g>

<g id="Comps_working_psd_Asset_lightbox_Join_fans_across_the_country_and_celebrate_Canada_s_team__Write_0_Layer0_0_MEMBER_17_FILL">
<path fill="#333333" stroke="none" d="
M -73.9 -2.65
Q -73.9 -1.3 -73.3 -0.25 -72.75 0.8 -71.7 1.35 -70.65 1.95 -69.4 1.95 -68.45 1.95 -67.65 1.65 -66.8 1.35 -66.35 0.9
L -66.55 -0.5
Q -66.95 -0.15 -67.75 0.25 -68.3 0.45 -69.15 0.45 -70 0.45 -70.7 0.05 -71.4 -0.4 -71.75 -1.1 -72.15 -1.8 -72.15 -2.65 -72.15 -3.4 -71.75 -4.2 -71.45 -4.9 -70.75 -5.35 -70.05 -5.75 -69.25 -5.75 -68.6 -5.75 -68.05 -5.55 -67.45 -5.35 -67 -4.9
L -66.35 -6.25
Q -66.85 -6.65 -67.65 -6.95 -68.5 -7.2 -69.25 -7.2 -70.55 -7.2 -71.65 -6.65 -72.7 -6.05 -73.3 -5 -73.9 -3.95 -73.9 -2.65 Z"/>
</g>

<g id="Comps_working_psd_Asset_lightbox_Join_fans_across_the_country_and_celebrate_Canada_s_team__Write_0_Layer0_0_MEMBER_18_FILL">
<path fill="#333333" stroke="none" d="
M -62.75 -6.65
Q -63.85 -6 -64.4 -5.05 -65 -4 -65 -2.65 -65 -1.3 -64.4 -0.25 -63.8 0.85 -62.75 1.35 -61.7 1.95 -60.35 1.95 -59.05 1.95 -58 1.35 -56.9 0.8 -56.3 -0.25 -55.7 -1.3 -55.7 -2.65 -55.7 -4 -56.3 -5.05 -56.85 -6 -58 -6.65 -59.1 -7.2 -60.35 -7.2 -61.65 -7.2 -62.75 -6.65
M -62.95 -4.2
Q -62.55 -4.9 -61.95 -5.35 -61.25 -5.75 -60.35 -5.75 -59.5 -5.75 -58.8 -5.35 -58.15 -4.9 -57.75 -4.2 -57.4 -3.4 -57.4 -2.65 -57.4 -1.9 -57.75 -1.1 -58.1 -0.4 -58.8 0.05 -59.5 0.45 -60.35 0.45 -61.25 0.45 -61.95 0.05 -62.65 -0.45 -62.95 -1.1 -63.3 -1.75 -63.3 -2.65 -63.3 -3.55 -62.95 -4.2 Z"/>
</g>

<g id="Comps_working_psd_Asset_lightbox_Join_fans_across_the_country_and_celebrate_Canada_s_team__Write_0_Layer0_0_MEMBER_19_FILL">
<path fill="#333333" stroke="none" d="
M -53.4 -6.95
L -53.4 -1.65
Q -53.4 -0.15 -52.65 0.9 -51.95 1.9 -50.25 1.9 -49.3 1.9 -48.5 1.4 -47.7 0.95 -47.3 0.1 -47.3 1.1 -47.15 1.7
L -45.5 1.7 -45.6 -6.95 -47.35 -6.95 -47.35 -2.5
Q -47.35 -1.15 -48 -0.35 -48.7 0.5 -49.7 0.5 -50.8 0.5 -51.2 -0.25 -51.65 -0.9 -51.65 -2.1
L -51.65 -6.95 -53.4 -6.95 Z"/>
</g>

<g id="Comps_working_psd_Asset_lightbox_Join_fans_across_the_country_and_celebrate_Canada_s_team__Write_0_Layer0_0_MEMBER_20_FILL">
<path fill="#333333" stroke="none" d="
M -41 -6.95
L -42.7 -6.95 -42.6 1.7 -40.85 1.7 -40.85 -2.85
Q -40.85 -4.05 -40.2 -4.95 -39.55 -5.75 -38.45 -5.75 -37.45 -5.75 -37 -5 -36.55 -4.3 -36.55 -3.2
L -36.55 1.7 -34.8 1.7 -34.8 -3.6
Q -34.8 -5.15 -35.55 -6.15 -36.3 -7.2 -37.95 -7.2 -38.85 -7.2 -39.75 -6.7 -40.55 -6.15 -40.85 -5.35
L -40.9 -5.35 -41 -6.95 Z"/>
</g>

<g id="Comps_working_psd_Asset_lightbox_Join_fans_across_the_country_and_celebrate_Canada_s_team__Write_0_Layer0_0_MEMBER_21_FILL">
<path fill="#333333" stroke="none" d="
M -31.7 -5.6
L -31.7 -0.7
Q -31.7 0.55 -31.1 1.2 -30.5 1.9 -29.4 1.9 -28.3 1.9 -27.35 1.4
L -27.55 0.15
Q -28.2 0.5 -28.85 0.5 -30 0.5 -30 -0.95
L -30 -5.6 -27.85 -5.6 -27.6 -6.95 -30 -6.95 -30 -9.35 -31.7 -8.9 -31.7 -6.95 -32.95 -6.95 -33.25 -5.6 -31.7 -5.6 Z"/>
</g>

<g id="Comps_working_psd_Asset_lightbox_Join_fans_across_the_country_and_celebrate_Canada_s_team__Write_0_Layer0_0_MEMBER_22_FILL">
<path fill="#333333" stroke="none" d="
M -20.65 -7.05
Q -21.1 -7.2 -21.6 -7.2 -22.3 -7.2 -22.95 -6.7 -23.6 -6.2 -23.9 -5.3
L -23.95 -5.3 -24.05 -6.95 -25.75 -6.95
Q -25.65 -6.45 -25.65 -4.8
L -25.65 1.7 -23.9 1.7 -23.9 -2.65
Q -23.9 -3.85 -23.3 -4.75 -22.75 -5.65 -21.7 -5.65
L -20.95 -5.55 -20.65 -7.05 Z"/>
</g>

<g id="Comps_working_psd_Asset_lightbox_Join_fans_across_the_country_and_celebrate_Canada_s_team__Write_0_Layer0_0_MEMBER_23_FILL">
<path fill="#333333" stroke="none" d="
M -18.5 -6.95
L -20.4 -6.95 -16.75 1.65 -17.2 2.9
Q -17.6 3.7 -18.1 4.05 -18.65 4.4 -19.65 4.55
L -19.1 6
Q -17.7 5.85 -16.9 5.2 -16 4.6 -15.55 3.2
L -11.75 -6.95 -13.6 -6.95 -15.85 -0.2 -18.5 -6.95 Z"/>
</g>

<g id="Comps_working_psd_Asset_lightbox_Join_fans_across_the_country_and_celebrate_Canada_s_team__Write_0_Layer0_0_MEMBER_24_FILL">
<path fill="#333333" stroke="none" d="
M -0.5 -3.6
L -1.2 -3.6
Q -3.2 -3.6 -4.75 -2.95 -6.15 -2.35 -6.15 -0.7 -6.15 0.65 -5.35 1.25 -4.65 1.9 -3.45 1.9 -2.45 1.9 -1.65 1.5 -0.8 1.05 -0.5 0.3
L -0.4 0.3 -0.4 0.95 -0.3 1.7 1.3 1.7
Q 1.2 1.25 1.2 -0.1
L 1.2 -3.7
Q 1.2 -5.45 0.3 -6.35 -0.65 -7.2 -2.3 -7.2 -4.25 -7.2 -5.7 -6.2
L -5.25 -4.9
Q -4.6 -5.35 -4 -5.6 -3.25 -5.9 -2.6 -5.9 -1.7 -5.9 -1.05 -5.4 -0.5 -4.85 -0.5 -3.95
L -0.5 -3.6
M -0.45 -1.85
Q -0.45 -1.15 -0.75 -0.65 -1.05 -0.1 -1.65 0.3 -2.2 0.7 -3 0.7 -3.55 0.7 -4.1 0.35 -4.55 0 -4.55 -0.75 -4.55 -2.55 -1.15 -2.55
L -0.45 -2.55 -0.45 -1.85 Z"/>
</g>

<g id="Comps_working_psd_Asset_lightbox_Join_fans_across_the_country_and_celebrate_Canada_s_team__Write_0_Layer0_0_MEMBER_25_FILL">
<path fill="#333333" stroke="none" d="
M 8.65 -7.2
Q 7.8 -7.2 6.9 -6.7 6.15 -6.2 5.75 -5.35
L 5.7 -5.35
Q 5.7 -6.2 5.6 -6.95
L 3.95 -6.95 4 1.7 5.8 1.7 5.8 -2.85
Q 5.8 -4.15 6.45 -4.95 7.1 -5.75 8.15 -5.75 9.2 -5.75 9.65 -5 10.1 -4.3 10.1 -3.2
L 10.1 1.7 11.85 1.7 11.85 -3.6
Q 11.85 -5.2 11.05 -6.15 10.3 -7.2 8.65 -7.2 Z"/>
</g>

<g id="Comps_working_psd_Asset_lightbox_Join_fans_across_the_country_and_celebrate_Canada_s_team__Write_0_Layer0_0_MEMBER_26_FILL">
<path fill="#333333" stroke="none" d="
M 20.2 -6.7
Q 19.4 -7.2 18.35 -7.2 17.15 -7.2 16.15 -6.6 15.2 -5.9 14.65 -4.95 14.15 -3.95 14.15 -2.65 14.15 -1.35 14.65 -0.35 15.2 0.7 16.15 1.3 17.15 1.9 18.35 1.9 19.4 1.9 20.3 1.45 21.2 0.95 21.65 0.1
L 21.7 0.1 21.75 1.7 23.4 1.7 23.3 -12.2 21.55 -11.9 21.55 -5.45
Q 21.05 -6.25 20.2 -6.7
M 17.2 -5.35
Q 17.9 -5.75 18.75 -5.75 19.55 -5.75 20.25 -5.35 20.85 -4.9 21.25 -4.2 21.65 -3.4 21.65 -2.65 21.65 -1.8 21.25 -1.1 20.95 -0.45 20.25 0.05 19.55 0.45 18.75 0.45 17.9 0.45 17.2 0.05 16.55 -0.35 16.2 -1.1 15.85 -1.75 15.85 -2.65 15.85 -3.5 16.2 -4.2 16.65 -4.95 17.2 -5.35 Z"/>
</g>

<g id="Comps_working_psd_Asset_lightbox_Join_fans_across_the_country_and_celebrate_Canada_s_team__Write_0_Layer0_0_MEMBER_27_FILL">
<path fill="#333333" stroke="none" d="
M 37.8 -6.25
Q 37.15 -6.7 36.5 -6.95 35.6 -7.2 34.85 -7.2 33.6 -7.2 32.5 -6.65 31.4 -6.05 30.8 -5 30.2 -3.95 30.2 -2.65 30.2 -1.3 30.8 -0.25 31.4 0.85 32.45 1.35 33.5 1.95 34.75 1.95 35.7 1.95 36.5 1.65 37.3 1.35 37.8 0.9
L 37.55 -0.5
Q 37.2 -0.15 36.4 0.25 35.85 0.45 35 0.45 34.1 0.45 33.4 0.05 32.7 -0.4 32.35 -1.1 32 -1.75 32 -2.65 32 -3.5 32.35 -4.2 32.75 -4.9 33.35 -5.35 34.05 -5.75 34.85 -5.75 35.55 -5.75 36.1 -5.55 36.6 -5.35 37.15 -4.9
L 37.8 -6.25 Z"/>
</g>

<g id="Comps_working_psd_Asset_lightbox_Join_fans_across_the_country_and_celebrate_Canada_s_team__Write_0_Layer0_0_MEMBER_28_FILL">
<path fill="#333333" stroke="none" d="
M 39.1 -2.65
Q 39.1 -1.3 39.7 -0.25 40.3 0.85 41.35 1.35 42.35 1.95 43.65 1.95 45.7 1.95 47.15 0.95
L 46.9 -0.4
Q 46.4 -0.05 45.5 0.3 44.9 0.55 43.85 0.55 43 0.55 42.3 0.2 41.7 -0.15 41.2 -0.8 40.8 -1.5 40.8 -2.25
L 47.7 -2.25 47.7 -2.8
Q 47.7 -4.1 47.2 -5.05 46.7 -6.05 45.75 -6.65 44.75 -7.2 43.5 -7.2 42.3 -7.2 41.3 -6.65 40.35 -6.1 39.7 -5 39.1 -4 39.1 -2.65
M 43.55 -5.95
Q 44.65 -5.95 45.35 -5.25 46.05 -4.45 46.05 -3.4
L 40.8 -3.4
Q 40.8 -3.9 41.15 -4.6 41.5 -5.2 42.1 -5.55 42.75 -5.95 43.55 -5.95 Z"/>
</g>

<g id="Comps_working_psd_Asset_lightbox_Join_fans_across_the_country_and_celebrate_Canada_s_team__Write_0_Layer0_0_MEMBER_29_FILL">
<path fill="#333333" stroke="none" d="
M 50.1 -11.85
L 50.1 -0.95
Q 50.1 1.1 51.85 1.95
L 52.8 0.55
Q 52.25 0.25 52.05 -0.1 51.85 -0.6 51.85 -1.2
L 51.85 -12.1 50.1 -11.85 Z"/>
</g>

<g id="Comps_working_psd_Asset_lightbox_Join_fans_across_the_country_and_celebrate_Canada_s_team__Write_0_Layer0_0_MEMBER_30_FILL">
<path fill="#333333" stroke="none" d="
M 58.7 -7.2
Q 57.5 -7.2 56.5 -6.65 55.55 -6.1 54.9 -5 54.3 -4 54.3 -2.65 54.3 -1.3 54.9 -0.25 55.5 0.85 56.55 1.35 57.6 1.95 58.85 1.95 60.85 1.95 62.4 0.95
L 62.15 -0.4
Q 61.65 -0.05 60.75 0.3 60.05 0.55 59.05 0.55 58.2 0.55 57.55 0.2 56.85 -0.15 56.45 -0.8 56 -1.45 56 -2.25
L 62.9 -2.25 62.9 -2.8
Q 62.9 -4.1 62.4 -5.05 62 -6 60.95 -6.65 59.95 -7.2 58.7 -7.2
M 58.75 -5.95
Q 59.8 -5.95 60.6 -5.25 61.2 -4.55 61.3 -3.4
L 56 -3.4
Q 56.1 -4.05 56.35 -4.6 56.7 -5.2 57.3 -5.55 58 -5.95 58.75 -5.95 Z"/>
</g>

<g id="Comps_working_psd_Asset_lightbox_Join_fans_across_the_country_and_celebrate_Canada_s_team__Write_0_Layer0_0_MEMBER_31_FILL">
<path fill="#333333" stroke="none" d="
M 70.3 -7.2
Q 69.2 -7.2 68.4 -6.7 67.6 -6.25 67.1 -5.45
L 67.05 -5.45 67.05 -12.2 65.3 -11.9 65.3 -0.4
Q 65.3 1 65.2 1.7
L 66.8 1.7 66.95 0.1 67 0.1
Q 67.45 0.95 68.35 1.45 69.25 1.9 70.25 1.9 71.55 1.9 72.5 1.3 73.4 0.75 73.95 -0.35 74.5 -1.45 74.5 -2.65 74.5 -3.85 73.95 -4.95 73.4 -6.05 72.5 -6.6 71.55 -7.2 70.3 -7.2
M 68.4 -5.3
Q 69.1 -5.75 69.9 -5.75 70.75 -5.75 71.45 -5.35 72.05 -4.9 72.45 -4.2 72.8 -3.3 72.8 -2.65 72.8 -1.9 72.45 -1.1 72.15 -0.45 71.45 0.05 70.75 0.45 69.9 0.45 69.1 0.45 68.4 0.05 67.7 -0.4 67.35 -1.1 67 -1.75 67 -2.65 67 -3.5 67.35 -4.2 67.75 -4.95 68.4 -5.3 Z"/>
</g>

<g id="Comps_working_psd_Asset_lightbox_Join_fans_across_the_country_and_celebrate_Canada_s_team__Write_0_Layer0_0_MEMBER_32_FILL">
<path fill="#333333" stroke="none" d="
M 78.45 -6.95
L 76.8 -6.95 76.9 1.7 78.65 1.7 78.65 -2.65
Q 78.65 -3.9 79.2 -4.75 79.8 -5.65 80.85 -5.65
L 81.6 -5.55 81.85 -7.05
Q 81.5 -7.2 80.9 -7.2 80.3 -7.2 79.55 -6.7 78.85 -6.1 78.6 -5.3 78.6 -6.25 78.45 -6.95 Z"/>
</g>

<g id="Comps_working_psd_Asset_lightbox_Join_fans_across_the_country_and_celebrate_Canada_s_team__Write_0_Layer0_0_MEMBER_33_FILL">
<path fill="#333333" stroke="none" d="
M 89 -6.35
Q 88.05 -7.2 86.45 -7.2 84.55 -7.2 83 -6.2
L 83.45 -4.9
Q 84.1 -5.35 84.7 -5.6 85.45 -5.9 86.1 -5.9 87.05 -5.9 87.65 -5.4 88.2 -4.85 88.2 -3.95
L 88.2 -3.6 87.5 -3.6
Q 85.5 -3.6 83.95 -2.95 82.55 -2.35 82.55 -0.7 82.55 0.65 83.35 1.25 84.05 1.9 85.25 1.9 86.25 1.9 87.05 1.5 87.9 1.05 88.25 0.3
L 88.3 0.3 88.3 0.95 88.4 1.7 90 1.7
Q 89.9 1.25 89.9 -0.1
L 89.9 -3.7
Q 89.9 -5.45 89 -6.35
M 88.25 -1.85
Q 88.25 -1.15 87.95 -0.65 87.65 -0.1 87.05 0.3 86.5 0.7 85.7 0.7 85.15 0.7 84.6 0.35 84.2 0 84.2 -0.75 84.2 -2.55 87.55 -2.55
L 88.25 -2.55 88.25 -1.85 Z"/>
</g>

<g id="Comps_working_psd_Asset_lightbox_Join_fans_across_the_country_and_celebrate_Canada_s_team__Write_0_Layer0_0_MEMBER_34_FILL">
<path fill="#333333" stroke="none" d="
M 94.45 -6.95
L 94.45 -9.35 92.75 -8.9 92.75 -6.95 91.45 -6.95 91.2 -5.6 92.75 -5.6 92.75 -0.7
Q 92.75 0.55 93.35 1.2 93.9 1.9 95.05 1.9 96.15 1.9 97.1 1.4
L 96.9 0.15
Q 96.25 0.5 95.6 0.5 94.45 0.5 94.45 -0.95
L 94.45 -5.6 96.6 -5.6 96.85 -6.95 94.45 -6.95 Z"/>
</g>

<g id="Comps_working_psd_Asset_lightbox_Join_fans_across_the_country_and_celebrate_Canada_s_team__Write_0_Layer0_0_MEMBER_35_FILL">
<path fill="#333333" stroke="none" d="
M 98.2 -2.65
Q 98.2 -1.3 98.8 -0.25 99.4 0.8 100.4 1.35 101.45 1.95 102.75 1.95 104.8 1.95 106.25 0.95
L 106 -0.4
Q 105.5 -0.05 104.6 0.3 104 0.55 102.95 0.55 102.05 0.55 101.4 0.2 100.8 -0.15 100.3 -0.8 99.9 -1.5 99.85 -2.25
L 106.8 -2.25 106.8 -2.8
Q 106.8 -4.1 106.3 -5.05 105.8 -6.05 104.85 -6.65 103.85 -7.2 102.6 -7.2 101.4 -7.2 100.4 -6.65 99.3 -6.05 98.8 -5 98.2 -4 98.2 -2.65
M 100.25 -4.6
Q 100.6 -5.2 101.2 -5.55 101.85 -5.95 102.65 -5.95 103.75 -5.95 104.45 -5.25 105.15 -4.45 105.15 -3.4
L 99.9 -3.4
Q 99.9 -3.9 100.25 -4.6 Z"/>
</g>

<g id="Comps_working_psd_Asset_lightbox_Join_fans_across_the_country_and_celebrate_Canada_s_team__Write_0_Layer0_0_MEMBER_36_FILL">
<path fill="#333333" stroke="none" d="
M 117.45 -9.1
Q 118.65 -9.75 119.95 -9.75 121 -9.75 122.1 -9.35 123.2 -8.85 123.8 -8.3
L 124.3 -10
Q 123.5 -10.65 122.35 -11 121.15 -11.4 119.9 -11.4 118.05 -11.4 116.45 -10.55 114.95 -9.75 114.05 -8.2 113.15 -6.6 113.15 -4.7 113.15 -2.75 114.05 -1.25 114.9 0.35 116.45 1.15 117.95 2.05 119.85 2.05 121.05 2.05 122.45 1.55 123.65 1.1 124.35 0.4
L 124.05 -1.2
Q 123.05 -0.4 122.25 -0.1 121.2 0.35 120 0.35 118.55 0.35 117.45 -0.3 116.35 -0.95 115.75 -2.1 115.15 -3.3 115.15 -4.7 115.15 -6.1 115.75 -7.25 116.35 -8.45 117.45 -9.1 Z"/>
</g>

<g id="Comps_working_psd_Asset_lightbox_Join_fans_across_the_country_and_celebrate_Canada_s_team__Write_0_Layer0_0_MEMBER_37_FILL">
<path fill="#333333" stroke="none" d="
M 131.2 -3.6
L 130.5 -3.6
Q 128.5 -3.6 126.95 -2.95 125.55 -2.35 125.55 -0.7 125.55 0.65 126.35 1.25 127.05 1.9 128.25 1.9 129.25 1.9 130.05 1.5 130.9 1.05 131.25 0.3
L 131.3 0.3 131.4 1.7 133 1.7
Q 132.9 1.25 132.9 -0.1
L 132.9 -3.7
Q 132.9 -5.45 132 -6.35 131.05 -7.2 129.45 -7.2 127.55 -7.2 126 -6.2
L 126.45 -4.9
Q 127.1 -5.35 127.7 -5.6 128.45 -5.9 129.1 -5.9 130.05 -5.9 130.65 -5.4 131.2 -4.85 131.2 -3.95
L 131.2 -3.6
M 131.25 -1.85
Q 131.25 -1.15 130.95 -0.65 130.65 -0.1 130.05 0.3 129.5 0.7 128.7 0.7 128.15 0.7 127.6 0.35 127.2 0 127.2 -0.75 127.2 -2.55 130.55 -2.55
L 131.25 -2.55 131.25 -1.85 Z"/>
</g>

<g id="Comps_working_psd_Asset_lightbox_Join_fans_across_the_country_and_celebrate_Canada_s_team__Write_0_Layer0_0_MEMBER_38_FILL">
<path fill="#333333" stroke="none" d="
M 140.35 -7.2
Q 139.5 -7.2 138.6 -6.7 137.85 -6.2 137.45 -5.35
L 137.4 -5.35 137.35 -6.95 135.65 -6.95 135.75 1.7 137.5 1.7 137.5 -2.85
Q 137.5 -4.15 138.15 -4.95 138.8 -5.75 139.85 -5.75 140.9 -5.75 141.35 -5 141.8 -4.3 141.8 -3.2
L 141.8 1.7 143.55 1.7 143.55 -3.6
Q 143.55 -5.2 142.75 -6.15 142 -7.2 140.35 -7.2 Z"/>
</g>

<g id="Comps_working_psd_Asset_lightbox_Join_fans_across_the_country_and_celebrate_Canada_s_team__Write_0_Layer0_0_MEMBER_39_FILL">
<path fill="#333333" stroke="none" d="
M 151.5 -3.6
L 150.75 -3.6
Q 148.8 -3.6 147.25 -2.95 145.8 -2.35 145.8 -0.7 145.8 0.65 146.65 1.25 147.35 1.9 148.5 1.9 149.55 1.9 150.3 1.5 151.15 1.05 151.5 0.3
L 151.55 0.3 151.7 1.7 153.3 1.7
Q 153.15 1.05 153.15 -0.1
L 153.15 -3.7
Q 153.15 -5.45 152.25 -6.35 151.3 -7.2 149.7 -7.2 147.75 -7.2 146.3 -6.2
L 146.75 -4.9
Q 147.4 -5.35 148 -5.6 148.75 -5.9 149.4 -5.9 150.3 -5.9 150.95 -5.4 151.5 -4.85 151.5 -3.95
L 151.5 -3.6
M 151.55 -1.85
Q 151.55 -1.15 151.25 -0.65 150.95 -0.1 150.35 0.3 149.8 0.7 149 0.7 148.45 0.7 147.9 0.35 147.45 0 147.45 -0.75 147.45 -2.55 150.85 -2.55
L 151.55 -2.55 151.55 -1.85 Z"/>
</g>

<g id="Comps_working_psd_Asset_lightbox_Join_fans_across_the_country_and_celebrate_Canada_s_team__Write_0_Layer0_0_MEMBER_40_FILL">
<path fill="#333333" stroke="none" d="
M 161.5 -6.7
Q 160.7 -7.2 159.65 -7.2 158.35 -7.2 157.45 -6.6 156.5 -5.9 155.95 -4.95 155.4 -3.85 155.4 -2.65 155.4 -1.45 155.95 -0.35 156.5 0.7 157.45 1.3 158.35 1.9 159.65 1.9 160.65 1.9 161.55 1.45 162.45 0.95 162.9 0.1
L 162.95 0.1 163.05 1.7 164.65 1.7 164.6 -12.2 162.85 -11.9 162.85 -5.45 162.8 -5.45
Q 162.4 -6.2 161.5 -6.7
M 160 -5.75
Q 160.8 -5.75 161.5 -5.35 162.15 -4.9 162.55 -4.2 162.9 -3.5 162.9 -2.65 162.9 -1.75 162.55 -1.1 162.2 -0.4 161.5 0.05 160.8 0.45 160 0.45 159.15 0.45 158.5 0.05 157.75 -0.45 157.5 -1.1 157.15 -1.75 157.15 -2.65 157.15 -3.5 157.5 -4.2 157.8 -4.9 158.5 -5.35 159.15 -5.75 160 -5.75 Z"/>
</g>

<g id="Comps_working_psd_Asset_lightbox_Join_fans_across_the_country_and_celebrate_Canada_s_team__Write_0_Layer0_0_MEMBER_41_FILL">
<path fill="#333333" stroke="none" d="
M 168.4 -2.95
Q 166.95 -2.35 166.95 -0.7 166.95 0.65 167.8 1.25 168.5 1.9 169.65 1.9 170.7 1.9 171.45 1.5 172.3 1.05 172.65 0.3
L 172.7 0.3 172.85 1.7 174.45 1.7
Q 174.3 1.05 174.3 -0.1
L 174.3 -3.7
Q 174.3 -5.45 173.4 -6.35 172.45 -7.2 170.85 -7.2 168.9 -7.2 167.45 -6.2
L 167.9 -4.9
Q 168.55 -5.35 169.15 -5.6 169.9 -5.9 170.55 -5.9 171.45 -5.9 172.1 -5.4 172.65 -4.85 172.65 -3.95
L 172.65 -3.6 171.9 -3.6
Q 169.95 -3.6 168.4 -2.95
M 168.6 -0.75
Q 168.6 -2.55 172 -2.55
L 172.7 -2.55 172.7 -1.85
Q 172.7 -1.15 172.4 -0.65 172.1 -0.1 171.5 0.3 170.95 0.7 170.15 0.7 169.6 0.7 169.05 0.35 168.6 0 168.6 -0.75 Z"/>
</g>

<g id="Comps_working_psd_Asset_lightbox_Join_fans_across_the_country_and_celebrate_Canada_s_team__Write_0_Layer0_0_MEMBER_42_FILL">
<path fill="#333333" stroke="none" d="
M 178.55 -10.7
Q 178.25 -11.05 177.75 -11.05 177.25 -11.05 176.9 -10.7 176.55 -10.4 176.55 -9.9 176.55 -9.45 176.85 -9.15 177.15 -8.75 177.6 -8.75 177.5 -8.2 177 -7.55 176.9 -7.35 176.1 -6.6
L 176.7 -6.15
Q 177.75 -6.9 178.25 -7.7 178.9 -8.65 178.9 -9.75 178.9 -10.35 178.55 -10.7 Z"/>
</g>

<g id="Comps_working_psd_Asset_lightbox_Join_fans_across_the_country_and_celebrate_Canada_s_team__Write_0_Layer0_0_MEMBER_43_FILL">
<path fill="#333333" stroke="none" d="
M 180.3 -4.65
Q 180.3 -3.6 180.95 -3.1 181.55 -2.5 182.8 -2.2 184.05 -1.8 184.4 -1.5 184.9 -1.2 184.9 -0.65 184.9 0 184.4 0.3 183.95 0.6 183.2 0.6 181.65 0.6 180.4 -0.35
L 180.15 1.05
Q 180.7 1.45 181.55 1.65 182.4 1.95 183.35 1.95 184.25 1.95 184.9 1.65 185.65 1.35 186.1 0.75 186.6 0.1 186.6 -0.75 186.6 -1.75 185.9 -2.35 185.2 -2.9 183.9 -3.3
L 182.35 -3.9
Q 181.95 -4.15 181.95 -4.75 181.95 -5.3 182.4 -5.6 182.85 -5.9 183.5 -5.9 184.1 -5.9 184.65 -5.7 185.55 -5.2 185.65 -5.1
L 186.3 -6.3
Q 185.9 -6.65 185.05 -6.95 184.2 -7.2 183.4 -7.2 182.75 -7.2 181.9 -6.95 181.2 -6.65 180.75 -6.05 180.3 -5.5 180.3 -4.65 Z"/>
</g>

<g id="Comps_working_psd_Asset_lightbox_Join_fans_across_the_country_and_celebrate_Canada_s_team__Write_0_Layer0_0_MEMBER_44_FILL">
<path fill="#333333" stroke="none" d="
M 192.25 -6.95
L 192 -5.6 193.55 -5.6 193.55 -0.7
Q 193.55 0.55 194.15 1.2 194.7 1.9 195.85 1.9 196.95 1.9 197.9 1.4
L 197.7 0.15
Q 197.05 0.5 196.4 0.5 195.25 0.5 195.25 -0.95
L 195.25 -5.6 197.4 -5.6 197.65 -6.95 195.25 -6.95 195.25 -9.35 193.5 -8.9 193.5 -6.95 192.25 -6.95 Z"/>
</g>

<g id="Comps_working_psd_Asset_lightbox_Join_fans_across_the_country_and_celebrate_Canada_s_team__Write_0_Layer0_0_MEMBER_45_FILL">
<path fill="#333333" stroke="none" d="
M 199 -2.65
Q 199 -1.3 199.6 -0.25 200.2 0.8 201.2 1.35 202.25 1.95 203.55 1.95 205.6 1.95 207.05 0.95
L 206.8 -0.4
Q 206.3 -0.05 205.4 0.3 204.8 0.55 203.75 0.55 202.85 0.55 202.2 0.2 201.6 -0.15 201.1 -0.8 200.7 -1.5 200.65 -2.25
L 207.6 -2.25 207.6 -2.8
Q 207.6 -4.1 207.1 -5.05 206.65 -6 205.65 -6.65 204.65 -7.2 203.4 -7.2 202.25 -7.2 201.15 -6.65 200.1 -6 199.6 -5 199 -4 199 -2.65
M 201.05 -4.6
Q 201.4 -5.2 202 -5.55 202.65 -5.95 203.4 -5.95 204.55 -5.95 205.25 -5.25 205.95 -4.45 205.95 -3.4
L 200.7 -3.4
Q 200.7 -3.9 201.05 -4.6 Z"/>
</g>

<g id="Comps_working_psd_Asset_lightbox_Join_fans_across_the_country_and_celebrate_Canada_s_team__Write_0_Layer0_0_MEMBER_46_FILL">
<path fill="#333333" stroke="none" d="
M 210.7 -2.95
Q 209.25 -2.35 209.25 -0.7 209.25 0.65 210.1 1.25 210.8 1.9 211.95 1.9 213 1.9 213.75 1.5 214.6 1.05 214.95 0.3
L 215 0.3 215.15 1.7 216.75 1.7
Q 216.6 1.05 216.6 -0.1
L 216.6 -3.7
Q 216.6 -5.45 215.7 -6.35 214.75 -7.2 213.15 -7.2 211.2 -7.2 209.75 -6.2
L 210.2 -4.9
Q 210.85 -5.35 211.45 -5.6 212.2 -5.9 212.85 -5.9 213.75 -5.9 214.4 -5.4 214.95 -4.85 214.95 -3.95
L 214.95 -3.6 214.2 -3.6
Q 212.25 -3.6 210.7 -2.95
M 215 -1.85
Q 215 -1.15 214.7 -0.65 214.4 -0.1 213.8 0.3 213.25 0.7 212.45 0.7 211.9 0.7 211.35 0.35 210.9 0 210.9 -0.75 210.9 -2.55 214.3 -2.55
L 215 -2.55 215 -1.85 Z"/>
</g>

<g id="Comps_working_psd_Asset_lightbox_Join_fans_across_the_country_and_celebrate_Canada_s_team__Write_0_Layer0_0_MEMBER_47_FILL">
<path fill="#333333" stroke="none" d="
M 219.35 -6.95
Q 219.45 -6.35 219.45 -5.05
L 219.45 1.7 221.25 1.7 221.25 -2.75
Q 221.25 -4.1 221.85 -4.95 222.45 -5.75 223.45 -5.75 224.35 -5.75 224.8 -5.1 225.25 -4.5 225.25 -3.35
L 225.25 1.7 227 1.7 227 -2.85
Q 227 -4.1 227.6 -4.95 228.25 -5.75 229.25 -5.75 230.25 -5.75 230.7 -5 231.1 -4.3 231.1 -3.15
L 231.1 1.7 232.85 1.7 232.85 -3.55
Q 232.85 -5.1 232.1 -6.15 231.35 -7.2 229.75 -7.2 228.8 -7.2 227.95 -6.7 227.2 -6.2 226.75 -5.25 226.4 -6.2 225.75 -6.7 224.9 -7.2 224 -7.2 223.15 -7.2 222.3 -6.7 221.5 -6.15 221.2 -5.35
L 221.15 -5.35 221.05 -6.95 219.35 -6.95 Z"/>
</g>

<g id="Comps_working_psd_Asset_lightbox_Join_fans_across_the_country_and_celebrate_Canada_s_team__Write_0_Layer0_0_MEMBER_48_FILL">
<path fill="#333333" stroke="none" d="
M 236.2 -11.05
L 236.35 -2.2 238 -2.2 238.1 -11.05 236.2 -11.05
M 237.15 -0.45
Q 236.7 -0.45 236.35 -0.1 236 0.25 236 0.7 236 1.05 236.35 1.5 236.8 1.85 237.15 1.85 237.6 1.85 237.95 1.5 238.3 1.15 238.3 0.7 238.3 0.2 237.95 -0.1 237.65 -0.45 237.15 -0.45 Z"/>
</g>

<g id="Comps_working_psd_Asset_lightbox_Join_fans_across_the_country_and_celebrate_Canada_s_team__Write_0_Layer0_0_MEMBER_49_FILL">
<path fill="#333333" stroke="none" d="
M -141.6 17.35
L -141.55 17.35 -138.5 27.7 -136.6 27.7 -132.85 14.95 -134.75 14.95 -137.55 25.25 -137.6 25.25 -140.55 14.95 -142.55 14.95 -145.45 25.25 -145.5 25.25 -148.3 14.95 -150.25 14.95 -146.55 27.7 -144.6 27.7 -141.6 17.35 Z"/>
</g>

<g id="Comps_working_psd_Asset_lightbox_Join_fans_across_the_country_and_celebrate_Canada_s_team__Write_0_Layer0_0_MEMBER_50_FILL">
<path fill="#333333" stroke="none" d="
M -128.9 19.3
Q -129.6 19.9 -129.85 20.7 -129.85 19.75 -130 19.05
L -131.65 19.05 -131.55 27.7 -129.8 27.7 -129.8 23.35
Q -129.8 22.2 -129.25 21.25 -128.65 20.35 -127.6 20.35
L -126.85 20.45 -126.6 18.95
Q -126.95 18.8 -127.55 18.8 -128.15 18.8 -128.9 19.3 Z"/>
</g>

<g id="Comps_working_psd_Asset_lightbox_Join_fans_across_the_country_and_celebrate_Canada_s_team__Write_0_Layer0_0_MEMBER_51_FILL">
<path fill="#333333" stroke="none" d="
M -123.3 19.05
L -125.05 19.05 -125.05 27.7 -123.3 27.7 -123.3 19.05
M -124.15 16.95
Q -123.7 16.95 -123.4 16.65 -123.1 16.35 -123.1 15.9 -123.1 15.4 -123.4 15.1 -123.7 14.8 -124.15 14.8 -124.55 14.8 -124.95 15.1 -125.25 15.4 -125.25 15.9 -125.25 16.35 -124.95 16.65 -124.55 16.95 -124.15 16.95 Z"/>
</g>

<g id="Comps_working_psd_Asset_lightbox_Join_fans_across_the_country_and_celebrate_Canada_s_team__Write_0_Layer0_0_MEMBER_52_FILL">
<path fill="#333333" stroke="none" d="
M -120.15 19.05
L -121.4 19.05 -121.65 20.4 -120.1 20.4 -120.1 25.3
Q -120.1 26.5 -119.55 27.2 -118.95 27.9 -117.85 27.9 -116.7 27.9 -115.75 27.4
L -115.95 26.15
Q -116.65 26.5 -117.25 26.5 -118.4 26.5 -118.4 25.05
L -118.4 20.4 -116.3 20.4 -116 19.05 -118.4 19.05 -118.4 16.65 -120.15 17.1 -120.15 19.05 Z"/>
</g>

<g id="Comps_working_psd_Asset_lightbox_Join_fans_across_the_country_and_celebrate_Canada_s_team__Write_0_Layer0_0_MEMBER_53_FILL">
<path fill="#333333" stroke="none" d="
M -112.5 19.35
Q -113.55 20 -114.05 21 -114.65 22 -114.65 23.35 -114.65 24.7 -114.05 25.75 -113.4 26.85 -112.45 27.35 -111.4 27.95 -110.1 27.95 -108.05 27.95 -106.6 26.95
L -106.85 25.6
Q -107.35 25.95 -108.25 26.3 -108.85 26.55 -109.9 26.55 -110.8 26.55 -111.45 26.2 -112.05 25.85 -112.55 25.2 -112.95 24.5 -113 23.75
L -106.05 23.75 -106.05 23.2
Q -106.05 21.9 -106.55 20.95 -107 20 -108 19.35 -109 18.8 -110.25 18.8 -111.4 18.8 -112.5 19.35
M -112.6 21.4
Q -112.35 20.9 -111.65 20.45 -111 20.05 -110.25 20.05 -109.1 20.05 -108.4 20.75 -107.7 21.55 -107.7 22.6
L -112.95 22.6
Q -112.95 22.1 -112.6 21.4 Z"/>
</g>

<g id="Comps_working_psd_Asset_lightbox_Join_fans_across_the_country_and_celebrate_Canada_s_team__Write_0_Layer0_0_MEMBER_54_FILL">
<path fill="#333333" stroke="none" d="
M -91.8 19.05
L -93.65 19.05 -95.9 25.8 -98.5 19.05 -100.45 19.05 -96.8 27.65 -97.25 28.9
Q -97.55 29.7 -98.15 30.05 -98.6 30.4 -99.65 30.55
L -99.1 32
Q -97.7 31.85 -96.9 31.2 -96.1 30.6 -95.55 29.2
L -91.8 19.05 Z"/>
</g>

<g id="Comps_working_psd_Asset_lightbox_Join_fans_across_the_country_and_celebrate_Canada_s_team__Write_0_Layer0_0_MEMBER_55_FILL">
<path fill="#333333" stroke="none" d="
M -88.4 19.35
Q -89.5 20 -90.05 20.95 -90.7 21.95 -90.7 23.35 -90.7 24.75 -90.05 25.75 -89.45 26.85 -88.4 27.35 -87.35 27.95 -86 27.95 -84.7 27.95 -83.65 27.35 -82.65 26.85 -81.95 25.75 -81.35 24.7 -81.35 23.35 -81.35 22 -81.95 20.95 -82.6 19.95 -83.65 19.35 -84.75 18.8 -86 18.8 -87.3 18.8 -88.4 19.35
M -88.6 21.8
Q -88.15 21.05 -87.6 20.65 -86.9 20.25 -86 20.25 -85.15 20.25 -84.45 20.65 -83.75 21.1 -83.45 21.8 -83.05 22.5 -83.05 23.35 -83.05 24.2 -83.45 24.9 -83.7 25.55 -84.45 26.05 -85.15 26.45 -86 26.45 -86.9 26.45 -87.6 26.05 -88.25 25.65 -88.6 24.9 -88.95 24.25 -88.95 23.35 -88.95 22.45 -88.6 21.8 Z"/>
</g>

<g id="Comps_working_psd_Asset_lightbox_Join_fans_across_the_country_and_celebrate_Canada_s_team__Write_0_Layer0_0_MEMBER_56_FILL">
<path fill="#333333" stroke="none" d="
M -79.05 19.05
L -79.05 24.35
Q -79.05 25.85 -78.3 26.9 -77.6 27.9 -75.9 27.9 -74.95 27.9 -74.15 27.4 -73.35 26.95 -72.95 26.1
L -72.85 27.7 -71.15 27.7 -71.25 19.05 -73 19.05 -73 23.5
Q -73 24.75 -73.65 25.65 -74.35 26.5 -75.4 26.5 -76.45 26.5 -76.9 25.75 -77.3 25.05 -77.3 23.9
L -77.3 19.05 -79.05 19.05 Z"/>
</g>

<g id="Comps_working_psd_Asset_lightbox_Join_fans_across_the_country_and_celebrate_Canada_s_team__Write_0_Layer0_0_MEMBER_57_FILL">
<path fill="#333333" stroke="none" d="
M -66.65 19.05
L -68.35 19.05 -68.25 27.7 -66.5 27.7 -66.5 23.35
Q -66.5 22.2 -65.95 21.25 -65.35 20.35 -64.3 20.35
L -63.55 20.45 -63.3 18.95
Q -63.65 18.8 -64.2 18.8 -64.85 18.8 -65.6 19.3 -66.2 19.8 -66.55 20.7
L -66.65 19.05 Z"/>
</g>

<g id="Comps_working_psd_Asset_lightbox_Join_fans_across_the_country_and_celebrate_Canada_s_team__Write_0_Layer0_0_MEMBER_58_FILL">
<path fill="#333333" stroke="none" d="
M -55.55 20.65
L -55.6 19.05 -57.3 19.05 -57.25 32 -55.5 32 -55.5 26.15 -55.45 26.15
Q -55 27 -54.15 27.45 -53.3 27.9 -52.3 27.9 -51.05 27.9 -50.1 27.3 -49.1 26.7 -48.6 25.65 -48.1 24.65 -48.1 23.35 -48.1 22.05 -48.6 21.05 -49.1 20 -50.1 19.4 -51.05 18.8 -52.3 18.8 -53.35 18.8 -54.2 19.3 -55.05 19.75 -55.5 20.65
L -55.55 20.65
M -52.65 20.25
Q -51.8 20.25 -51.15 20.65 -50.45 21.1 -50.15 21.8 -49.8 22.5 -49.8 23.35 -49.8 24.25 -50.15 24.9 -50.4 25.55 -51.15 26.05 -51.8 26.45 -52.65 26.45 -53.45 26.45 -54.15 26.05 -54.85 25.6 -55.2 24.9 -55.6 24.2 -55.6 23.35 -55.6 22.6 -55.2 21.8 -54.8 21.05 -54.15 20.7 -53.45 20.25 -52.65 20.25 Z"/>
</g>

<g id="Comps_working_psd_Asset_lightbox_Join_fans_across_the_country_and_celebrate_Canada_s_team__Write_0_Layer0_0_MEMBER_59_FILL">
<path fill="#333333" stroke="none" d="
M -38.2 20.95
Q -38.6 20 -39.65 19.35 -40.6 18.8 -41.85 18.8 -43.1 18.8 -44.1 19.35 -45.1 20 -45.7 21 -46.3 22 -46.3 23.35 -46.3 24.7 -45.7 25.75 -45.1 26.85 -44.05 27.35 -43 27.95 -41.7 27.95 -39.75 27.95 -38.2 26.95
L -38.45 25.6
Q -38.85 25.9 -39.85 26.3 -40.55 26.55 -41.55 26.55 -42.4 26.55 -43.05 26.2 -43.75 25.85 -44.15 25.2 -44.6 24.55 -44.6 23.75
L -37.7 23.75 -37.65 23.2
Q -37.65 21.95 -38.2 20.95
M -40 20.75
Q -39.3 21.55 -39.3 22.6
L -44.6 22.6
Q -44.5 21.9 -44.2 21.4 -43.9 20.8 -43.25 20.45 -42.6 20.05 -41.85 20.05 -40.7 20.05 -40 20.75 Z"/>
</g>

<g id="Comps_working_psd_Asset_lightbox_Join_fans_across_the_country_and_celebrate_Canada_s_team__Write_0_Layer0_0_MEMBER_60_FILL">
<path fill="#333333" stroke="none" d="
M -31.25 18.8
Q -31.95 18.8 -32.6 19.3 -33.25 19.8 -33.55 20.7
L -33.6 20.7
Q -33.6 19.5 -33.7 19.05
L -35.35 19.05 -35.3 27.7 -33.55 27.7 -33.55 23.35
Q -33.55 22.15 -32.95 21.25 -32.35 20.35 -31.35 20.35
L -30.6 20.45 -30.3 18.95
Q -30.65 18.8 -31.25 18.8 Z"/>
</g>

<g id="Comps_working_psd_Asset_lightbox_Join_fans_across_the_country_and_celebrate_Canada_s_team__Write_0_Layer0_0_MEMBER_61_FILL">
<path fill="#333333" stroke="none" d="
M -27.2 20.4
Q -26.75 20.1 -26.05 20.1 -25.4 20.1 -24.95 20.3 -24.1 20.7 -23.9 20.9
L -23.25 19.7
Q -23.6 19.4 -24.5 19.05 -25.4 18.8 -26.15 18.8 -26.8 18.8 -27.65 19.05 -28.35 19.35 -28.8 19.95 -29.25 20.5 -29.25 21.35 -29.25 22.4 -28.6 22.9 -28 23.5 -26.8 23.8 -25.5 24.2 -25.15 24.5 -24.65 24.8 -24.65 25.35 -24.65 26 -25.15 26.3 -25.65 26.6 -26.35 26.6 -27.9 26.6 -29.2 25.65
L -29.45 27.05
Q -28.95 27.4 -28.05 27.65 -27.15 27.95 -26.2 27.95 -25.4 27.95 -24.65 27.65 -23.9 27.35 -23.45 26.75 -23 26.15 -23 25.25 -23 24.2 -23.7 23.65 -24.35 23.1 -25.7 22.7
L -27.2 22.1
Q -27.65 21.8 -27.65 21.25 -27.65 20.7 -27.2 20.4 Z"/>
</g>

<g id="Comps_working_psd_Asset_lightbox_Join_fans_across_the_country_and_celebrate_Canada_s_team__Write_0_Layer0_0_MEMBER_62_FILL">
<path fill="#333333" stroke="none" d="
M -16.65 18.8
Q -17.85 18.8 -19.05 19.35 -20.15 20 -20.7 20.95 -21.3 22 -21.3 23.35 -21.3 24.7 -20.7 25.75 -20.1 26.85 -19.05 27.35 -17.9 27.95 -16.65 27.95 -15.35 27.95 -14.25 27.35 -13.2 26.85 -12.6 25.75 -12 24.7 -12 23.35 -12 22 -12.6 20.95 -13.15 20 -14.25 19.35 -15.45 18.8 -16.65 18.8
M -18.2 20.65
Q -17.5 20.25 -16.65 20.25 -15.8 20.25 -15.1 20.65 -14.45 21.1 -14.05 21.8 -13.7 22.45 -13.7 23.35 -13.7 24.25 -14.05 24.9 -14.4 25.6 -15.1 26.05 -15.8 26.45 -16.65 26.45 -17.5 26.45 -18.2 26.05 -18.9 25.6 -19.25 24.9 -19.6 24.1 -19.6 23.35 -19.6 22.6 -19.25 21.8 -18.85 21.1 -18.2 20.65 Z"/>
</g>

<g id="Comps_working_psd_Asset_lightbox_Join_fans_across_the_country_and_celebrate_Canada_s_team__Write_0_Layer0_0_MEMBER_63_FILL">
<path fill="#333333" stroke="none" d="
M -7.95 19.05
L -9.65 19.05 -9.6 27.7 -7.8 27.7 -7.8 23.15
Q -7.8 21.85 -7.15 21.05 -6.5 20.25 -5.45 20.25 -4.4 20.25 -3.95 21 -3.5 21.7 -3.5 22.8
L -3.5 27.7 -1.75 27.7 -1.75 22.4
Q -1.75 20.8 -2.55 19.85 -3.3 18.8 -4.95 18.8 -5.8 18.8 -6.7 19.3 -7.45 19.8 -7.85 20.65
L -7.9 20.65 -7.95 19.05 Z"/>
</g>

<g id="Comps_working_psd_Asset_lightbox_Join_fans_across_the_country_and_celebrate_Canada_s_team__Write_0_Layer0_0_MEMBER_64_FILL">
<path fill="#333333" stroke="none" d="
M 2.7 20.4
Q 3.45 20.1 4.1 20.1 5 20.1 5.65 20.6 6.2 21.15 6.2 22.05
L 6.2 22.4 5.45 22.4
Q 3.5 22.4 1.95 23.05 0.5 23.65 0.5 25.3 0.5 26.6 1.3 27.25 2.1 27.9 3.2 27.9 4.25 27.9 5 27.5 5.85 27.05 6.2 26.3
L 6.25 26.3 6.4 27.7 8 27.7
Q 7.85 27.05 7.85 25.9
L 7.85 22.3
Q 7.85 20.55 6.95 19.65 6 18.8 4.4 18.8 2.45 18.8 1 19.8
L 1.45 21.1
Q 2.1 20.65 2.7 20.4
M 6.25 23.45
L 6.25 24.15
Q 6.25 24.85 5.95 25.35 5.65 25.9 5.05 26.3 4.4 26.7 3.7 26.7 3.15 26.7 2.6 26.35 2.15 26 2.15 25.25 2.15 23.45 5.55 23.45
L 6.25 23.45 Z"/>
</g>

<g id="Comps_working_psd_Asset_lightbox_Join_fans_across_the_country_and_celebrate_Canada_s_team__Write_0_Layer0_0_MEMBER_65_FILL">
<path fill="#333333" stroke="none" d="
M 10.7 25.05
Q 10.7 27.1 12.45 27.95
L 13.4 26.55
Q 12.85 26.25 12.7 25.9 12.45 25.5 12.45 24.8
L 12.45 13.9 10.7 14.15 10.7 25.05 Z"/>
</g>

<g id="Comps_working_psd_Asset_lightbox_Join_fans_across_the_country_and_celebrate_Canada_s_team__Write_0_Layer0_0_MEMBER_66_FILL">
<path fill="#333333" stroke="none" d="
M 27.9 18.1
Q 27.9 16.4 26.7 15.65 25.4 14.95 23.7 14.95
L 20.1 14.95 20.1 27.7 23.85 27.7
Q 25.8 27.7 27.15 26.8 28.45 25.95 28.45 24.1 28.45 22.8 27.6 21.95 26.85 21.2 25.6 20.95 26.6 20.65 27.25 19.95 27.9 19.15 27.9 18.1
M 25.35 16.85
Q 26.1 17.4 26.1 18.35 26.1 19.35 25.35 19.85 24.65 20.4 23.55 20.4
L 21.9 20.4 21.9 16.4 23.35 16.4
Q 24.6 16.4 25.35 16.85
M 21.9 21.75
L 23.7 21.75
Q 24.95 21.75 25.8 22.3 26.6 22.9 26.6 24 26.6 25.15 25.8 25.65 24.85 26.2 23.6 26.2
L 21.9 26.2 21.9 21.75 Z"/>
</g>

<g id="Comps_working_psd_Asset_lightbox_Join_fans_across_the_country_and_celebrate_Canada_s_team__Write_0_Layer0_0_MEMBER_67_FILL">
<path fill="#333333" stroke="none" d="
M 30.9 25.05
Q 30.9 27.1 32.65 27.95
L 33.6 26.55
Q 33.05 26.25 32.9 25.9 32.65 25.5 32.65 24.8
L 32.65 13.9 30.9 14.15 30.9 25.05 Z"/>
</g>

<g id="Comps_working_psd_Asset_lightbox_Join_fans_across_the_country_and_celebrate_Canada_s_team__Write_0_Layer0_0_MEMBER_68_FILL">
<path fill="#333333" stroke="none" d="
M 43.5 27.7
L 43.4 19.05 41.65 19.05 41.65 23.5
Q 41.65 24.85 41 25.65 40.3 26.5 39.3 26.5 38.2 26.5 37.8 25.75 37.35 25.1 37.35 23.9
L 37.35 19.05 35.6 19.05 35.6 24.35
Q 35.6 25.85 36.35 26.9 37.05 27.9 38.75 27.9 39.7 27.9 40.5 27.4 41.3 26.95 41.7 26.1 41.7 27.1 41.85 27.7
L 43.5 27.7 Z"/>
</g>

<g id="Comps_working_psd_Asset_lightbox_Join_fans_across_the_country_and_celebrate_Canada_s_team__Write_0_Layer0_0_MEMBER_69_FILL">
<path fill="#333333" stroke="none" d="
M 50.2 18.8
Q 49 18.8 48 19.35 47.05 19.9 46.4 21 45.8 22 45.8 23.35 45.8 24.7 46.4 25.75 47 26.85 48.05 27.35 49.05 27.95 50.35 27.95 52.4 27.95 53.85 26.95
L 53.6 25.6
Q 53.15 25.95 52.25 26.3 51.55 26.55 50.55 26.55 49.7 26.55 49 26.2 48.4 25.85 47.9 25.2 47.5 24.5 47.5 23.75
L 54.4 23.75 54.4 23.2
Q 54.4 21.9 53.9 20.95 53.4 19.95 52.45 19.35 51.45 18.8 50.2 18.8
M 48.8 20.45
Q 49.45 20.05 50.25 20.05 51.35 20.05 52.05 20.75 52.7 21.4 52.8 22.6
L 47.5 22.6
Q 47.6 21.95 47.85 21.4 48.2 20.8 48.8 20.45 Z"/>
</g>

<g id="Comps_working_psd_Asset_lightbox_Join_fans_across_the_country_and_celebrate_Canada_s_team__Write_0_Layer0_0_MEMBER_70_FILL">
<path fill="#333333" stroke="none" d="
M 65.15 23.85
L 65.15 14.95 63.35 14.95 63.35 23.7
Q 63.35 24.85 62.8 25.65 62.25 26.35 61.05 26.35 60.5 26.35 60.05 26.2
L 60.35 27.95
Q 60.6 28 61.35 28 63.3 28 64.2 26.85 65.15 25.7 65.15 23.85 Z"/>
</g>

<g id="Comps_working_psd_Asset_lightbox_Join_fans_across_the_country_and_celebrate_Canada_s_team__Write_0_Layer0_0_MEMBER_71_FILL">
<path fill="#333333" stroke="none" d="
M 67.9 19.8
L 68.35 21.1
Q 69 20.65 69.6 20.4 70.35 20.1 71.05 20.1 71.95 20.1 72.55 20.6 73.1 21.1 73.1 22.05
L 73.1 22.4 72.4 22.4
Q 70.4 22.4 68.85 23.05 67.45 23.65 67.45 25.3 67.45 26.65 68.25 27.25 69.05 27.9 70.15 27.9 71.2 27.9 71.95 27.5 72.8 27.05 73.15 26.3
L 73.2 26.3 73.35 27.7 74.9 27.7 74.8 22.3
Q 74.8 20.55 73.9 19.65 72.95 18.8 71.35 18.8 69.45 18.8 67.9 19.8
M 73.15 23.45
L 73.15 24.15
Q 73.15 24.85 72.85 25.35 72.6 25.9 72 26.3 71.35 26.7 70.6 26.7 70.05 26.7 69.5 26.35 69.1 25.95 69.1 25.25 69.1 23.45 72.45 23.45
L 73.15 23.45 Z"/>
</g>

<g id="Comps_working_psd_Asset_lightbox_Join_fans_across_the_country_and_celebrate_Canada_s_team__Write_0_Layer0_0_MEMBER_72_FILL">
<path fill="#333333" stroke="none" d="
M 85 19.05
L 83.15 19.05 80.9 25.8 78.3 19.05 76.35 19.05 80 27.65 79.55 28.9
Q 79.25 29.7 78.65 30.05 78.1 30.4 77.15 30.55
L 77.65 32
Q 79.05 31.85 79.9 31.2 80.7 30.6 81.25 29.2
L 85 19.05 Z"/>
</g>

<g id="Comps_working_psd_Asset_lightbox_Join_fans_across_the_country_and_celebrate_Canada_s_team__Write_0_Layer0_0_MEMBER_73_FILL">
<path fill="#333333" stroke="none" d="
M 90.95 19.05
Q 90.1 18.8 89.3 18.8 88.6 18.8 87.85 19.05 87.1 19.35 86.65 19.95 86.2 20.5 86.2 21.35 86.2 22.4 86.85 22.9 87.55 23.5 88.7 23.8 89.95 24.2 90.3 24.5 90.8 24.8 90.8 25.35 90.8 26 90.3 26.3 89.85 26.6 89.1 26.6 87.55 26.6 86.3 25.65
L 86.05 27.05
Q 86.6 27.45 87.45 27.65 88.3 27.95 89.25 27.95 90.1 27.95 90.85 27.65 91.55 27.35 92 26.75 92.5 26.2 92.5 25.25 92.5 24.25 91.8 23.65 91.2 23.1 89.8 22.7
L 88.25 22.1
Q 87.85 21.8 87.85 21.25 87.85 20.7 88.3 20.4 88.75 20.1 89.4 20.1 90 20.1 90.55 20.3 91.45 20.8 91.55 20.9
L 92.25 19.7
Q 91.75 19.35 90.95 19.05 Z"/>
</g>

<g id="Comps_working_psd_Asset_lightbox_Join_fans_across_the_country_and_celebrate_Canada_s_team__Write_0_Layer0_0_MEMBER_74_FILL">
<path fill="#333333" stroke="none" d="
M 104.95 19.05
Q 104.05 18.8 103.3 18.8 102.05 18.8 100.95 19.35 99.85 19.95 99.25 21 98.65 22.05 98.65 23.35 98.65 24.7 99.25 25.75 99.85 26.85 100.9 27.35 101.9 27.95 103.2 27.95 104.15 27.95 104.9 27.65 105.75 27.35 106.25 26.9
L 106 25.5
Q 105.65 25.85 104.85 26.25 104.25 26.45 103.45 26.45 102.55 26.45 101.85 26.05 101.15 25.6 100.8 24.9 100.45 24.25 100.45 23.35 100.45 22.5 100.8 21.8 101.2 21.1 101.8 20.65 102.5 20.25 103.3 20.25 104 20.25 104.55 20.45 105.05 20.65 105.6 21.1
L 106.25 19.75
Q 105.6 19.3 104.95 19.05 Z"/>
</g>

<g id="Comps_working_psd_Asset_lightbox_Join_fans_across_the_country_and_celebrate_Canada_s_team__Write_0_Layer0_0_MEMBER_75_FILL">
<path fill="#333333" stroke="none" d="
M 109.9 13.85
L 108.15 14.1 108.15 27.7 109.9 27.7 109.9 23.3
Q 109.9 21.9 110.55 21.1 111.25 20.25 112.25 20.25 113.3 20.25 113.75 21 114.2 21.7 114.2 22.8
L 114.2 27.7 115.95 27.7 115.95 22.4
Q 115.95 20.85 115.2 19.85 114.45 18.8 112.8 18.8 111.75 18.8 111.05 19.3 110.2 19.9 109.95 20.6
L 109.9 20.6 109.9 13.85 Z"/>
</g>

<g id="Comps_working_psd_Asset_lightbox_Join_fans_across_the_country_and_celebrate_Canada_s_team__Write_0_Layer0_0_MEMBER_76_FILL">
<path fill="#333333" stroke="none" d="
M 126.85 23.75
L 126.85 23.2
Q 126.85 21.9 126.35 20.95 125.9 20 124.9 19.35 123.9 18.8 122.65 18.8 121.5 18.8 120.4 19.35 119.35 20 118.85 21 118.25 22 118.25 23.35 118.25 24.7 118.85 25.75 119.5 26.85 120.45 27.35 121.5 27.95 122.8 27.95 124.85 27.95 126.3 26.95
L 126.05 25.6
Q 125.55 25.95 124.65 26.3 124.05 26.55 123 26.55 122.1 26.55 121.45 26.2 120.85 25.85 120.35 25.2 119.95 24.5 119.9 23.75
L 126.85 23.75
M 124.5 20.75
Q 125.2 21.55 125.2 22.6
L 119.95 22.6
Q 119.95 22.1 120.3 21.4 120.55 20.9 121.25 20.45 121.9 20.05 122.65 20.05 123.8 20.05 124.5 20.75 Z"/>
</g>

<g id="Comps_working_psd_Asset_lightbox_Join_fans_across_the_country_and_celebrate_Canada_s_team__Write_0_Layer0_0_MEMBER_77_FILL">
<path fill="#333333" stroke="none" d="
M 130.8 19.35
Q 129.75 20 129.25 21 128.65 22 128.65 23.35 128.65 24.7 129.25 25.75 129.85 26.8 130.85 27.35 131.9 27.95 133.2 27.95 135.25 27.95 136.7 26.95
L 136.45 25.6
Q 135.95 25.95 135.05 26.3 134.45 26.55 133.4 26.55 132.5 26.55 131.85 26.2 131.25 25.85 130.75 25.2 130.35 24.5 130.3 23.75
L 137.25 23.75 137.25 23.2
Q 137.25 21.9 136.75 20.95 136.3 20 135.3 19.35 134.3 18.8 133.05 18.8 131.9 18.8 130.8 19.35
M 130.35 22.6
Q 130.35 22.1 130.7 21.4 131.05 20.8 131.65 20.45 132.3 20.05 133.05 20.05 134.2 20.05 134.9 20.75 135.6 21.55 135.6 22.6
L 130.35 22.6 Z"/>
</g>

<g id="Comps_working_psd_Asset_lightbox_Join_fans_across_the_country_and_celebrate_Canada_s_team__Write_0_Layer0_0_MEMBER_78_FILL">
<path fill="#333333" stroke="none" d="
M 141.95 21.25
Q 142.55 20.35 143.6 20.35
L 144.35 20.45 144.6 18.95
Q 144.25 18.8 143.65 18.8 143.05 18.8 142.3 19.3 141.6 19.9 141.35 20.7
L 141.25 19.05 139.55 19.05 139.65 27.7 141.4 27.7 141.4 23.35
Q 141.4 22.2 141.95 21.25 Z"/>
</g>

<g id="Comps_working_psd_Asset_lightbox_Join_fans_across_the_country_and_celebrate_Canada_s_team__Write_0_Layer0_0_MEMBER_79_FILL">
<path fill="#333333" stroke="none" d="
M 146.75 27.5
Q 147.2 27.85 147.55 27.85 148 27.85 148.35 27.5 148.7 27.15 148.7 26.7 148.7 26.2 148.35 25.9 148.05 25.55 147.55 25.55 147.1 25.55 146.75 25.9 146.45 26.2 146.45 26.7 146.45 27.15 146.75 27.5
M 146.75 23.8
L 148.4 23.8 148.5 14.95 146.65 14.95 146.75 23.8 Z"/>
</g>
</defs>

<g transform="matrix( 1, 0, 0, 1, 39,24) ">
<g transform="matrix( 1, 0, 0, 1, 239.45,12.35) ">
<use xlink:href="#Comps_working_psd_Asset_lightbox_Join_fans_across_the_country_and_celebrate_Canada_s_team__Write_0_Layer0_0_MEMBER_0_FILL"/>
</g>

<g transform="matrix( 1, 0, 0, 1, 239.45,12.35) ">
<use xlink:href="#Comps_working_psd_Asset_lightbox_Join_fans_across_the_country_and_celebrate_Canada_s_team__Write_0_Layer0_0_MEMBER_1_FILL"/>
</g>

<g transform="matrix( 1, 0, 0, 1, 239.45,12.35) ">
<use xlink:href="#Comps_working_psd_Asset_lightbox_Join_fans_across_the_country_and_celebrate_Canada_s_team__Write_0_Layer0_0_MEMBER_2_FILL"/>
</g>

<g transform="matrix( 1, 0, 0, 1, 239.45,12.35) ">
<use xlink:href="#Comps_working_psd_Asset_lightbox_Join_fans_across_the_country_and_celebrate_Canada_s_team__Write_0_Layer0_0_MEMBER_3_FILL"/>
</g>

<g transform="matrix( 1, 0, 0, 1, 239.45,12.35) ">
<use xlink:href="#Comps_working_psd_Asset_lightbox_Join_fans_across_the_country_and_celebrate_Canada_s_team__Write_0_Layer0_0_MEMBER_4_FILL"/>
</g>

<g transform="matrix( 1, 0, 0, 1, 239.45,12.35) ">
<use xlink:href="#Comps_working_psd_Asset_lightbox_Join_fans_across_the_country_and_celebrate_Canada_s_team__Write_0_Layer0_0_MEMBER_5_FILL"/>
</g>

<g transform="matrix( 1, 0, 0, 1, 239.45,12.35) ">
<use xlink:href="#Comps_working_psd_Asset_lightbox_Join_fans_across_the_country_and_celebrate_Canada_s_team__Write_0_Layer0_0_MEMBER_6_FILL"/>
</g>

<g transform="matrix( 1, 0, 0, 1, 239.45,12.35) ">
<use xlink:href="#Comps_working_psd_Asset_lightbox_Join_fans_across_the_country_and_celebrate_Canada_s_team__Write_0_Layer0_0_MEMBER_7_FILL"/>
</g>

<g transform="matrix( 1, 0, 0, 1, 239.45,12.35) ">
<use xlink:href="#Comps_working_psd_Asset_lightbox_Join_fans_across_the_country_and_celebrate_Canada_s_team__Write_0_Layer0_0_MEMBER_8_FILL"/>
</g>

<g transform="matrix( 1, 0, 0, 1, 239.45,12.35) ">
<use xlink:href="#Comps_working_psd_Asset_lightbox_Join_fans_across_the_country_and_celebrate_Canada_s_team__Write_0_Layer0_0_MEMBER_9_FILL"/>
</g>

<g transform="matrix( 1, 0, 0, 1, 239.45,12.35) ">
<use xlink:href="#Comps_working_psd_Asset_lightbox_Join_fans_across_the_country_and_celebrate_Canada_s_team__Write_0_Layer0_0_MEMBER_10_FILL"/>
</g>

<g transform="matrix( 1, 0, 0, 1, 239.45,12.35) ">
<use xlink:href="#Comps_working_psd_Asset_lightbox_Join_fans_across_the_country_and_celebrate_Canada_s_team__Write_0_Layer0_0_MEMBER_11_FILL"/>
</g>

<g transform="matrix( 1, 0, 0, 1, 239.45,12.35) ">
<use xlink:href="#Comps_working_psd_Asset_lightbox_Join_fans_across_the_country_and_celebrate_Canada_s_team__Write_0_Layer0_0_MEMBER_12_FILL"/>
</g>

<g transform="matrix( 1, 0, 0, 1, 239.45,12.35) ">
<use xlink:href="#Comps_working_psd_Asset_lightbox_Join_fans_across_the_country_and_celebrate_Canada_s_team__Write_0_Layer0_0_MEMBER_13_FILL"/>
</g>

<g transform="matrix( 1, 0, 0, 1, 239.45,12.35) ">
<use xlink:href="#Comps_working_psd_Asset_lightbox_Join_fans_across_the_country_and_celebrate_Canada_s_team__Write_0_Layer0_0_MEMBER_14_FILL"/>
</g>

<g transform="matrix( 1, 0, 0, 1, 239.45,12.35) ">
<use xlink:href="#Comps_working_psd_Asset_lightbox_Join_fans_across_the_country_and_celebrate_Canada_s_team__Write_0_Layer0_0_MEMBER_15_FILL"/>
</g>

<g transform="matrix( 1, 0, 0, 1, 239.45,12.35) ">
<use xlink:href="#Comps_working_psd_Asset_lightbox_Join_fans_across_the_country_and_celebrate_Canada_s_team__Write_0_Layer0_0_MEMBER_16_FILL"/>
</g>

<g transform="matrix( 1, 0, 0, 1, 239.45,12.35) ">
<use xlink:href="#Comps_working_psd_Asset_lightbox_Join_fans_across_the_country_and_celebrate_Canada_s_team__Write_0_Layer0_0_MEMBER_17_FILL"/>
</g>

<g transform="matrix( 1, 0, 0, 1, 239.45,12.35) ">
<use xlink:href="#Comps_working_psd_Asset_lightbox_Join_fans_across_the_country_and_celebrate_Canada_s_team__Write_0_Layer0_0_MEMBER_18_FILL"/>
</g>

<g transform="matrix( 1, 0, 0, 1, 239.45,12.35) ">
<use xlink:href="#Comps_working_psd_Asset_lightbox_Join_fans_across_the_country_and_celebrate_Canada_s_team__Write_0_Layer0_0_MEMBER_19_FILL"/>
</g>

<g transform="matrix( 1, 0, 0, 1, 239.45,12.35) ">
<use xlink:href="#Comps_working_psd_Asset_lightbox_Join_fans_across_the_country_and_celebrate_Canada_s_team__Write_0_Layer0_0_MEMBER_20_FILL"/>
</g>

<g transform="matrix( 1, 0, 0, 1, 239.45,12.35) ">
<use xlink:href="#Comps_working_psd_Asset_lightbox_Join_fans_across_the_country_and_celebrate_Canada_s_team__Write_0_Layer0_0_MEMBER_21_FILL"/>
</g>

<g transform="matrix( 1, 0, 0, 1, 239.45,12.35) ">
<use xlink:href="#Comps_working_psd_Asset_lightbox_Join_fans_across_the_country_and_celebrate_Canada_s_team__Write_0_Layer0_0_MEMBER_22_FILL"/>
</g>

<g transform="matrix( 1, 0, 0, 1, 239.45,12.35) ">
<use xlink:href="#Comps_working_psd_Asset_lightbox_Join_fans_across_the_country_and_celebrate_Canada_s_team__Write_0_Layer0_0_MEMBER_23_FILL"/>
</g>

<g transform="matrix( 1, 0, 0, 1, 239.45,12.35) ">
<use xlink:href="#Comps_working_psd_Asset_lightbox_Join_fans_across_the_country_and_celebrate_Canada_s_team__Write_0_Layer0_0_MEMBER_24_FILL"/>
</g>

<g transform="matrix( 1, 0, 0, 1, 239.45,12.35) ">
<use xlink:href="#Comps_working_psd_Asset_lightbox_Join_fans_across_the_country_and_celebrate_Canada_s_team__Write_0_Layer0_0_MEMBER_25_FILL"/>
</g>

<g transform="matrix( 1, 0, 0, 1, 239.45,12.35) ">
<use xlink:href="#Comps_working_psd_Asset_lightbox_Join_fans_across_the_country_and_celebrate_Canada_s_team__Write_0_Layer0_0_MEMBER_26_FILL"/>
</g>

<g transform="matrix( 1, 0, 0, 1, 239.45,12.35) ">
<use xlink:href="#Comps_working_psd_Asset_lightbox_Join_fans_across_the_country_and_celebrate_Canada_s_team__Write_0_Layer0_0_MEMBER_27_FILL"/>
</g>

<g transform="matrix( 1, 0, 0, 1, 239.45,12.35) ">
<use xlink:href="#Comps_working_psd_Asset_lightbox_Join_fans_across_the_country_and_celebrate_Canada_s_team__Write_0_Layer0_0_MEMBER_28_FILL"/>
</g>

<g transform="matrix( 1, 0, 0, 1, 239.45,12.35) ">
<use xlink:href="#Comps_working_psd_Asset_lightbox_Join_fans_across_the_country_and_celebrate_Canada_s_team__Write_0_Layer0_0_MEMBER_29_FILL"/>
</g>

<g transform="matrix( 1, 0, 0, 1, 239.45,12.35) ">
<use xlink:href="#Comps_working_psd_Asset_lightbox_Join_fans_across_the_country_and_celebrate_Canada_s_team__Write_0_Layer0_0_MEMBER_30_FILL"/>
</g>

<g transform="matrix( 1, 0, 0, 1, 239.45,12.35) ">
<use xlink:href="#Comps_working_psd_Asset_lightbox_Join_fans_across_the_country_and_celebrate_Canada_s_team__Write_0_Layer0_0_MEMBER_31_FILL"/>
</g>

<g transform="matrix( 1, 0, 0, 1, 239.45,12.35) ">
<use xlink:href="#Comps_working_psd_Asset_lightbox_Join_fans_across_the_country_and_celebrate_Canada_s_team__Write_0_Layer0_0_MEMBER_32_FILL"/>
</g>

<g transform="matrix( 1, 0, 0, 1, 239.45,12.35) ">
<use xlink:href="#Comps_working_psd_Asset_lightbox_Join_fans_across_the_country_and_celebrate_Canada_s_team__Write_0_Layer0_0_MEMBER_33_FILL"/>
</g>

<g transform="matrix( 1, 0, 0, 1, 239.45,12.35) ">
<use xlink:href="#Comps_working_psd_Asset_lightbox_Join_fans_across_the_country_and_celebrate_Canada_s_team__Write_0_Layer0_0_MEMBER_34_FILL"/>
</g>

<g transform="matrix( 1, 0, 0, 1, 239.45,12.35) ">
<use xlink:href="#Comps_working_psd_Asset_lightbox_Join_fans_across_the_country_and_celebrate_Canada_s_team__Write_0_Layer0_0_MEMBER_35_FILL"/>
</g>

<g transform="matrix( 1, 0, 0, 1, 239.45,12.35) ">
<use xlink:href="#Comps_working_psd_Asset_lightbox_Join_fans_across_the_country_and_celebrate_Canada_s_team__Write_0_Layer0_0_MEMBER_36_FILL"/>
</g>

<g transform="matrix( 1, 0, 0, 1, 239.45,12.35) ">
<use xlink:href="#Comps_working_psd_Asset_lightbox_Join_fans_across_the_country_and_celebrate_Canada_s_team__Write_0_Layer0_0_MEMBER_37_FILL"/>
</g>

<g transform="matrix( 1, 0, 0, 1, 239.45,12.35) ">
<use xlink:href="#Comps_working_psd_Asset_lightbox_Join_fans_across_the_country_and_celebrate_Canada_s_team__Write_0_Layer0_0_MEMBER_38_FILL"/>
</g>

<g transform="matrix( 1, 0, 0, 1, 239.45,12.35) ">
<use xlink:href="#Comps_working_psd_Asset_lightbox_Join_fans_across_the_country_and_celebrate_Canada_s_team__Write_0_Layer0_0_MEMBER_39_FILL"/>
</g>

<g transform="matrix( 1, 0, 0, 1, 239.45,12.35) ">
<use xlink:href="#Comps_working_psd_Asset_lightbox_Join_fans_across_the_country_and_celebrate_Canada_s_team__Write_0_Layer0_0_MEMBER_40_FILL"/>
</g>

<g transform="matrix( 1, 0, 0, 1, 239.45,12.35) ">
<use xlink:href="#Comps_working_psd_Asset_lightbox_Join_fans_across_the_country_and_celebrate_Canada_s_team__Write_0_Layer0_0_MEMBER_41_FILL"/>
</g>

<g transform="matrix( 1, 0, 0, 1, 239.45,12.35) ">
<use xlink:href="#Comps_working_psd_Asset_lightbox_Join_fans_across_the_country_and_celebrate_Canada_s_team__Write_0_Layer0_0_MEMBER_42_FILL"/>
</g>

<g transform="matrix( 1, 0, 0, 1, 239.45,12.35) ">
<use xlink:href="#Comps_working_psd_Asset_lightbox_Join_fans_across_the_country_and_celebrate_Canada_s_team__Write_0_Layer0_0_MEMBER_43_FILL"/>
</g>

<g transform="matrix( 1, 0, 0, 1, 239.45,12.35) ">
<use xlink:href="#Comps_working_psd_Asset_lightbox_Join_fans_across_the_country_and_celebrate_Canada_s_team__Write_0_Layer0_0_MEMBER_44_FILL"/>
</g>

<g transform="matrix( 1, 0, 0, 1, 239.45,12.35) ">
<use xlink:href="#Comps_working_psd_Asset_lightbox_Join_fans_across_the_country_and_celebrate_Canada_s_team__Write_0_Layer0_0_MEMBER_45_FILL"/>
</g>

<g transform="matrix( 1, 0, 0, 1, 239.45,12.35) ">
<use xlink:href="#Comps_working_psd_Asset_lightbox_Join_fans_across_the_country_and_celebrate_Canada_s_team__Write_0_Layer0_0_MEMBER_46_FILL"/>
</g>

<g transform="matrix( 1, 0, 0, 1, 239.45,12.35) ">
<use xlink:href="#Comps_working_psd_Asset_lightbox_Join_fans_across_the_country_and_celebrate_Canada_s_team__Write_0_Layer0_0_MEMBER_47_FILL"/>
</g>

<g transform="matrix( 1, 0, 0, 1, 239.45,12.35) ">
<use xlink:href="#Comps_working_psd_Asset_lightbox_Join_fans_across_the_country_and_celebrate_Canada_s_team__Write_0_Layer0_0_MEMBER_48_FILL"/>
</g>

<g transform="matrix( 1, 0, 0, 1, 239.45,12.35) ">
<use xlink:href="#Comps_working_psd_Asset_lightbox_Join_fans_across_the_country_and_celebrate_Canada_s_team__Write_0_Layer0_0_MEMBER_49_FILL"/>
</g>

<g transform="matrix( 1, 0, 0, 1, 239.45,12.35) ">
<use xlink:href="#Comps_working_psd_Asset_lightbox_Join_fans_across_the_country_and_celebrate_Canada_s_team__Write_0_Layer0_0_MEMBER_50_FILL"/>
</g>

<g transform="matrix( 1, 0, 0, 1, 239.45,12.35) ">
<use xlink:href="#Comps_working_psd_Asset_lightbox_Join_fans_across_the_country_and_celebrate_Canada_s_team__Write_0_Layer0_0_MEMBER_51_FILL"/>
</g>

<g transform="matrix( 1, 0, 0, 1, 239.45,12.35) ">
<use xlink:href="#Comps_working_psd_Asset_lightbox_Join_fans_across_the_country_and_celebrate_Canada_s_team__Write_0_Layer0_0_MEMBER_52_FILL"/>
</g>

<g transform="matrix( 1, 0, 0, 1, 239.45,12.35) ">
<use xlink:href="#Comps_working_psd_Asset_lightbox_Join_fans_across_the_country_and_celebrate_Canada_s_team__Write_0_Layer0_0_MEMBER_53_FILL"/>
</g>

<g transform="matrix( 1, 0, 0, 1, 239.45,12.35) ">
<use xlink:href="#Comps_working_psd_Asset_lightbox_Join_fans_across_the_country_and_celebrate_Canada_s_team__Write_0_Layer0_0_MEMBER_54_FILL"/>
</g>

<g transform="matrix( 1, 0, 0, 1, 239.45,12.35) ">
<use xlink:href="#Comps_working_psd_Asset_lightbox_Join_fans_across_the_country_and_celebrate_Canada_s_team__Write_0_Layer0_0_MEMBER_55_FILL"/>
</g>

<g transform="matrix( 1, 0, 0, 1, 239.45,12.35) ">
<use xlink:href="#Comps_working_psd_Asset_lightbox_Join_fans_across_the_country_and_celebrate_Canada_s_team__Write_0_Layer0_0_MEMBER_56_FILL"/>
</g>

<g transform="matrix( 1, 0, 0, 1, 239.45,12.35) ">
<use xlink:href="#Comps_working_psd_Asset_lightbox_Join_fans_across_the_country_and_celebrate_Canada_s_team__Write_0_Layer0_0_MEMBER_57_FILL"/>
</g>

<g transform="matrix( 1, 0, 0, 1, 239.45,12.35) ">
<use xlink:href="#Comps_working_psd_Asset_lightbox_Join_fans_across_the_country_and_celebrate_Canada_s_team__Write_0_Layer0_0_MEMBER_58_FILL"/>
</g>

<g transform="matrix( 1, 0, 0, 1, 239.45,12.35) ">
<use xlink:href="#Comps_working_psd_Asset_lightbox_Join_fans_across_the_country_and_celebrate_Canada_s_team__Write_0_Layer0_0_MEMBER_59_FILL"/>
</g>

<g transform="matrix( 1, 0, 0, 1, 239.45,12.35) ">
<use xlink:href="#Comps_working_psd_Asset_lightbox_Join_fans_across_the_country_and_celebrate_Canada_s_team__Write_0_Layer0_0_MEMBER_60_FILL"/>
</g>

<g transform="matrix( 1, 0, 0, 1, 239.45,12.35) ">
<use xlink:href="#Comps_working_psd_Asset_lightbox_Join_fans_across_the_country_and_celebrate_Canada_s_team__Write_0_Layer0_0_MEMBER_61_FILL"/>
</g>

<g transform="matrix( 1, 0, 0, 1, 239.45,12.35) ">
<use xlink:href="#Comps_working_psd_Asset_lightbox_Join_fans_across_the_country_and_celebrate_Canada_s_team__Write_0_Layer0_0_MEMBER_62_FILL"/>
</g>

<g transform="matrix( 1, 0, 0, 1, 239.45,12.35) ">
<use xlink:href="#Comps_working_psd_Asset_lightbox_Join_fans_across_the_country_and_celebrate_Canada_s_team__Write_0_Layer0_0_MEMBER_63_FILL"/>
</g>

<g transform="matrix( 1, 0, 0, 1, 239.45,12.35) ">
<use xlink:href="#Comps_working_psd_Asset_lightbox_Join_fans_across_the_country_and_celebrate_Canada_s_team__Write_0_Layer0_0_MEMBER_64_FILL"/>
</g>

<g transform="matrix( 1, 0, 0, 1, 239.45,12.35) ">
<use xlink:href="#Comps_working_psd_Asset_lightbox_Join_fans_across_the_country_and_celebrate_Canada_s_team__Write_0_Layer0_0_MEMBER_65_FILL"/>
</g>

<g transform="matrix( 1, 0, 0, 1, 239.45,12.35) ">
<use xlink:href="#Comps_working_psd_Asset_lightbox_Join_fans_across_the_country_and_celebrate_Canada_s_team__Write_0_Layer0_0_MEMBER_66_FILL"/>
</g>

<g transform="matrix( 1, 0, 0, 1, 239.45,12.35) ">
<use xlink:href="#Comps_working_psd_Asset_lightbox_Join_fans_across_the_country_and_celebrate_Canada_s_team__Write_0_Layer0_0_MEMBER_67_FILL"/>
</g>

<g transform="matrix( 1, 0, 0, 1, 239.45,12.35) ">
<use xlink:href="#Comps_working_psd_Asset_lightbox_Join_fans_across_the_country_and_celebrate_Canada_s_team__Write_0_Layer0_0_MEMBER_68_FILL"/>
</g>

<g transform="matrix( 1, 0, 0, 1, 239.45,12.35) ">
<use xlink:href="#Comps_working_psd_Asset_lightbox_Join_fans_across_the_country_and_celebrate_Canada_s_team__Write_0_Layer0_0_MEMBER_69_FILL"/>
</g>

<g transform="matrix( 1, 0, 0, 1, 239.45,12.35) ">
<use xlink:href="#Comps_working_psd_Asset_lightbox_Join_fans_across_the_country_and_celebrate_Canada_s_team__Write_0_Layer0_0_MEMBER_70_FILL"/>
</g>

<g transform="matrix( 1, 0, 0, 1, 239.45,12.35) ">
<use xlink:href="#Comps_working_psd_Asset_lightbox_Join_fans_across_the_country_and_celebrate_Canada_s_team__Write_0_Layer0_0_MEMBER_71_FILL"/>
</g>

<g transform="matrix( 1, 0, 0, 1, 239.45,12.35) ">
<use xlink:href="#Comps_working_psd_Asset_lightbox_Join_fans_across_the_country_and_celebrate_Canada_s_team__Write_0_Layer0_0_MEMBER_72_FILL"/>
</g>

<g transform="matrix( 1, 0, 0, 1, 239.45,12.35) ">
<use xlink:href="#Comps_working_psd_Asset_lightbox_Join_fans_across_the_country_and_celebrate_Canada_s_team__Write_0_Layer0_0_MEMBER_73_FILL"/>
</g>

<g transform="matrix( 1, 0, 0, 1, 239.45,12.35) ">
<use xlink:href="#Comps_working_psd_Asset_lightbox_Join_fans_across_the_country_and_celebrate_Canada_s_team__Write_0_Layer0_0_MEMBER_74_FILL"/>
</g>

<g transform="matrix( 1, 0, 0, 1, 239.45,12.35) ">
<use xlink:href="#Comps_working_psd_Asset_lightbox_Join_fans_across_the_country_and_celebrate_Canada_s_team__Write_0_Layer0_0_MEMBER_75_FILL"/>
</g>

<g transform="matrix( 1, 0, 0, 1, 239.45,12.35) ">
<use xlink:href="#Comps_working_psd_Asset_lightbox_Join_fans_across_the_country_and_celebrate_Canada_s_team__Write_0_Layer0_0_MEMBER_76_FILL"/>
</g>

<g transform="matrix( 1, 0, 0, 1, 239.45,12.35) ">
<use xlink:href="#Comps_working_psd_Asset_lightbox_Join_fans_across_the_country_and_celebrate_Canada_s_team__Write_0_Layer0_0_MEMBER_77_FILL"/>
</g>

<g transform="matrix( 1, 0, 0, 1, 239.45,12.35) ">
<use xlink:href="#Comps_working_psd_Asset_lightbox_Join_fans_across_the_country_and_celebrate_Canada_s_team__Write_0_Layer0_0_MEMBER_78_FILL"/>
</g>

<g transform="matrix( 1, 0, 0, 1, 239.45,12.35) ">
<use xlink:href="#Comps_working_psd_Asset_lightbox_Join_fans_across_the_country_and_celebrate_Canada_s_team__Write_0_Layer0_0_MEMBER_79_FILL"/>
</g>
</g>
</svg>
