
<svg xmlns="http://www.w3.org/2000/svg" version="1.1" xmlns:xlink="http://www.w3.org/1999/xlink" preserveAspectRatio="none" x="0px" y="0px" width="550px" height="100px" viewBox="0 0 550 100">
<defs>
<g id="Layer3_0_FILL">
<path fill="#FFFFFF" stroke="none" d="
M 231.95 -11.05
L 231.4 -7.45 230 -7.45 230.55 -11.05 228.55 -11.05 228 -7.45 226.25 -7.45 226.25 -5.6 227.8 -5.6 227.5 -3.8 225.75 -3.8 225.75 -1.9 227.25 -1.9 226.75 1.7 228.7 1.7 229.25 -1.9 230.65 -1.9 230.15 1.7 232.15 1.7 232.65 -1.9 234.45 -1.9 234.45 -3.8 232.9 -3.8 233.15 -5.6 234.95 -5.6 234.95 -7.45 233.4 -7.45 233.95 -11.05 231.95 -11.05
M 229.5 -3.8
L 229.75 -5.6 231.15 -5.6 230.9 -3.8 229.5 -3.8 Z"/>
</g>

<g id="Layer3_1_FILL">
<path fill="#FFFFFF" stroke="none" d="
M 241.6 -1.3
Q 240.75 -1.85 240.3 -2.65 239.85 -3.55 239.85 -4.7 239.85 -5.8 240.3 -6.7 240.7 -7.55 241.6 -8.1 242.4 -8.6 243.5 -8.6 244.5 -8.6 245.35 -8.25 246.15 -7.9 246.95 -7.35
L 247.7 -10.2
Q 246.9 -10.75 245.8 -11.05 244.75 -11.4 243.4 -11.4 241.4 -11.4 239.9 -10.55 238.25 -9.7 237.4 -8.25 236.5 -6.65 236.5 -4.7 236.5 -2.8 237.35 -1.2 238.25 0.3 239.85 1.15 241.35 2.05 243.35 2.05 244.75 2.05 245.85 1.6 246.9 1.25 247.8 0.6
L 247.35 -2.15
Q 245.65 -0.8 243.6 -0.8 242.45 -0.8 241.6 -1.3 Z"/>
</g>

<g id="Layer3_2_FILL">
<path fill="#FFFFFF" stroke="none" d="
M 252.55 -0.95
L 252.55 -3.6 256.95 -3.6 257.35 -6.05 252.55 -6.05 252.55 -8.45 257.45 -8.45 257.8 -11.05 249.6 -11.05 249.6 1.7 257.8 1.7 258.15 -0.95 252.55 -0.95 Z"/>
</g>

<g id="Layer3_3_FILL">
<path fill="#FFFFFF" stroke="none" d="
M 268 -1
L 263.1 -1 263.1 -11.05 260 -11.05 260 1.7 267.65 1.7 268 -1 Z"/>
</g>

<g id="Layer3_4_FILL">
<path fill="#FFFFFF" stroke="none" d="
M 272.45 -0.95
L 272.45 -3.6 276.8 -3.6 277.2 -6.05 272.45 -6.05 272.45 -8.45 277.3 -8.45 277.65 -11.05 269.45 -11.05 269.45 1.7 277.65 1.7 278 -0.95 272.45 -0.95 Z"/>
</g>

<g id="Layer3_5_FILL">
<path fill="#FFFFFF" stroke="none" d="
M 287.6 -10.3
Q 286.35 -11.05 284.55 -11.05
L 279.85 -11.05 279.85 1.7 284.55 1.7
Q 286.65 1.7 288 0.8 289.4 -0.1 289.4 -2 289.4 -3.3 288.7 -4 288 -4.75 286.8 -5
L 286.8 -5.05
Q 287.7 -5.35 288.35 -6.05 288.9 -6.75 288.9 -7.8 288.9 -9.55 287.6 -10.3
M 282.8 -6
L 282.8 -8.6 283.95 -8.6
Q 284.95 -8.6 285.45 -8.3 285.95 -7.95 285.95 -7.35 285.95 -6.75 285.45 -6.35 285.05 -6 284.1 -6
L 282.8 -6
M 282.8 -0.8
L 282.8 -3.7 284.15 -3.7
Q 285.25 -3.7 285.75 -3.4 286.35 -3.1 286.35 -2.3 286.35 -1.45 285.7 -1.15 285.15 -0.8 284.2 -0.8
L 282.8 -0.8 Z"/>
</g>

<g id="Layer3_6_FILL">
<path fill="#FFFFFF" stroke="none" d="
M 300.85 -7.05
Q 300.85 -9.15 299.45 -10.1 298.05 -11.05 295.95 -11.05
L 291.45 -11.05 291.45 1.7 294.5 1.7 294.5 -3 295.35 -3 298.3 1.7 301.9 1.7 298.35 -3.4
Q 299.45 -3.75 300.15 -4.8 300.85 -5.9 300.85 -7.05
M 294.45 -8.6
L 295.75 -8.6
Q 296.5 -8.6 297.15 -8.2 297.8 -7.75 297.8 -6.95 297.8 -5.25 295.55 -5.25
L 294.45 -5.25 294.45 -8.6 Z"/>
</g>

<g id="Layer3_7_FILL">
<path fill="#FFFFFF" stroke="none" d="
M 306.3 -1.3
L 310.85 -1.3 312.05 1.7 315.45 1.7 310.15 -11.05 307.15 -11.05 301.8 1.7 305.15 1.7 306.3 -1.3
M 307.15 -3.75
L 308.6 -7.65 310 -3.75 307.15 -3.75 Z"/>
</g>

<g id="Layer3_8_FILL">
<path fill="#FFFFFF" stroke="none" d="
M 314.4 -11.05
L 314.05 -8.45 317.8 -8.45 317.8 1.7 320.9 1.7 320.9 -8.45 324.3 -8.45 324.65 -11.05 314.4 -11.05 Z"/>
</g>

<g id="Layer3_9_FILL">
<path fill="#FFFFFF" stroke="none" d="
M 328.85 -0.95
L 328.85 -3.6 333.25 -3.6 333.6 -6.05 328.85 -6.05 328.85 -8.45 333.75 -8.45 334.1 -11.05 325.9 -11.05 325.9 1.7 334.05 1.7 334.4 -0.95 328.85 -0.95 Z"/>
</g>

<g id="Layer3_10_FILL">
<path fill="#FFFFFF" stroke="none" d="
M 344.05 -10.3
Q 342.8 -11.05 341 -11.05
L 336.25 -11.05 336.25 1.7 341 1.7
Q 343.05 1.7 344.45 0.8 345.85 -0.1 345.85 -2 345.85 -3.25 345.1 -4 344.5 -4.75 343.25 -5
L 343.25 -5.05
Q 344.2 -5.35 344.75 -6.05 345.35 -6.7 345.35 -7.8 345.35 -9.55 344.05 -10.3
M 342.35 -7.35
Q 342.35 -6.7 341.9 -6.35 341.4 -6 340.55 -6
L 339.25 -6 339.25 -8.6 340.4 -8.6
Q 341.4 -8.6 341.85 -8.3 342.35 -8 342.35 -7.35
M 339.25 -3.7
L 340.6 -3.7
Q 341.7 -3.7 342.2 -3.4 342.75 -3.1 342.75 -2.3 342.75 -1.45 342.15 -1.15 341.5 -0.8 340.6 -0.8
L 339.25 -0.8 339.25 -3.7 Z"/>
</g>

<g id="Layer3_11_FILL">
<path fill="#FFFFFF" stroke="none" d="
M 355.9 -1
L 351 -1 351 -11.05 347.9 -11.05 347.9 1.7 355.55 1.7 355.9 -1 Z"/>
</g>

<g id="Layer3_12_FILL">
<path fill="#FFFFFF" stroke="none" d="
M 364.05 -1.5
Q 363.45 -0.75 362.25 -0.75 361.05 -0.75 360.45 -1.5 359.85 -2.25 359.85 -3.35
L 359.85 -11.05 356.8 -11.05 356.8 -3.1
Q 356.8 -1.55 357.45 -0.45 358.1 0.7 359.35 1.4 360.65 2.05 362.25 2.05 363.8 2.05 365.1 1.4 366.4 0.7 367.05 -0.45 367.7 -1.55 367.7 -3.1
L 367.7 -11.05 364.65 -11.05 364.65 -3.35
Q 364.65 -2.25 364.05 -1.5 Z"/>
</g>

<g id="Layer3_13_FILL">
<path fill="#FFFFFF" stroke="none" d="
M 373.15 -0.95
L 373.15 -3.6 377.55 -3.6 377.9 -6.05 373.15 -6.05 373.15 -8.45 378.05 -8.45 378.4 -11.05 370.2 -11.05 370.2 1.7 378.35 1.7 378.75 -0.95 373.15 -0.95 Z"/>
</g>

<g id="Layer3_14_FILL">
<path fill="#FFFFFF" stroke="none" d="
M 385.5 -2.5
L 385.5 -11.05 382.4 -11.05 382.4 -2.65
Q 382.4 -1.75 381.95 -1.25 381.45 -0.75 380.6 -0.75 380.1 -0.75 379.65 -0.95
L 380.15 1.95 381.15 2.05
Q 383.25 2.05 384.4 0.75 385.5 -0.5 385.5 -2.5 Z"/>
</g>

<g id="Layer3_15_FILL">
<path fill="#FFFFFF" stroke="none" d="
M 390.7 -1.3
L 395.3 -1.3 396.45 1.7 399.9 1.7 394.6 -11.05 391.6 -11.05 386.25 1.7 389.6 1.7 390.7 -1.3
M 391.6 -3.75
L 393.05 -7.65 394.45 -3.75 391.6 -3.75 Z"/>
</g>

<g id="Layer3_16_FILL">
<path fill="#FFFFFF" stroke="none" d="
M 404.65 -6.35
L 401.9 -11.05 398.2 -11.05 403 -3.7 403 1.7 406.05 1.7 406.05 -3.7 410.95 -11.05 407.35 -11.05 404.65 -6.35 Z"/>
</g>

<g id="Layer3_17_FILL">
<path fill="#FFFFFF" stroke="none" d="
M 415.05 -6.7
Q 414.6 -7 414.6 -7.55 414.6 -8.25 415.15 -8.55 415.7 -8.85 416.4 -8.85 417.05 -8.85 417.95 -8.6 418.85 -8.3 419.35 -7.95
L 420.3 -10.4
Q 419.7 -10.75 418.5 -11.1 417.45 -11.4 416.3 -11.4 415.15 -11.4 414 -10.95 412.9 -10.5 412.2 -9.6 411.5 -8.65 411.5 -7.4 411.5 -5.8 412.4 -5 413.3 -4.2 414.75 -3.75
L 416.25 -3.2
Q 416.75 -3 417.1 -2.65 417.4 -2.35 417.4 -1.85 417.4 -1.15 416.9 -0.85 416.45 -0.55 415.65 -0.55 414.65 -0.55 413.8 -0.95 412.85 -1.3 411.9 -2
L 411.35 0.8
Q 412.45 1.4 413.45 1.7 414.6 2 415.85 2 417 2 418.1 1.55 419.05 1.15 419.85 0.1 420.5 -0.85 420.5 -2.25 420.5 -3.35 419.95 -4.15 419.3 -4.95 418.55 -5.3
L 416.55 -6.05
Q 415.4 -6.45 415.05 -6.7 Z"/>
</g>

<g id="Layer3_18_FILL">
<path fill="#FFFFFF" stroke="none" d="
M 434.7 -6.95
L 434.75 -6.95 437.3 1.7 440.35 1.7 443.95 -11.05 440.75 -11.05 438.7 -2.6 438.65 -2.6 436.35 -11.05 433.15 -11.05 430.9 -2.6 430.85 -2.6 428.85 -11.05 425.5 -11.05 429.15 1.7 432.2 1.7 434.7 -6.95 Z"/>
</g>

<g id="Layer3_19_FILL">
<path fill="#FFFFFF" stroke="none" d="
M 447.95 -1.3
L 452.55 -1.3 453.7 1.7 457.1 1.7 451.85 -11.05 448.85 -11.05 443.5 1.7 446.85 1.7 447.95 -1.3
M 448.85 -3.75
L 450.3 -7.65 451.7 -3.75 448.85 -3.75 Z"/>
</g>

<g id="Layer3_20_FILL">
<path fill="#FFFFFF" stroke="none" d="
M 466.2 -1
L 461.3 -1 461.3 -11.05 458.2 -11.05 458.2 1.7 465.85 1.7 466.2 -1 Z"/>
</g>

<g id="Layer3_21_FILL">
<path fill="#FFFFFF" stroke="none" d="
M 475.7 -1
L 470.75 -1 470.75 -11.05 467.65 -11.05 467.65 1.7 475.3 1.7 475.7 -1 Z"/>
</g>
</defs>

<g transform="matrix( 1, 0, 0, 1, -65.25,56.8) ">
<use xlink:href="#Layer3_0_FILL"/>
</g>

<g transform="matrix( 1, 0, 0, 1, -65.25,56.8) ">
<use xlink:href="#Layer3_1_FILL"/>
</g>

<g transform="matrix( 1, 0, 0, 1, -65.25,56.8) ">
<use xlink:href="#Layer3_2_FILL"/>
</g>

<g transform="matrix( 1, 0, 0, 1, -65.25,56.8) ">
<use xlink:href="#Layer3_3_FILL"/>
</g>

<g transform="matrix( 1, 0, 0, 1, -65.25,56.8) ">
<use xlink:href="#Layer3_4_FILL"/>
</g>

<g transform="matrix( 1, 0, 0, 1, -65.25,56.8) ">
<use xlink:href="#Layer3_5_FILL"/>
</g>

<g transform="matrix( 1, 0, 0, 1, -65.25,56.8) ">
<use xlink:href="#Layer3_6_FILL"/>
</g>

<g transform="matrix( 1, 0, 0, 1, -65.25,56.8) ">
<use xlink:href="#Layer3_7_FILL"/>
</g>

<g transform="matrix( 1, 0, 0, 1, -65.25,56.8) ">
<use xlink:href="#Layer3_8_FILL"/>
</g>

<g transform="matrix( 1, 0, 0, 1, -65.25,56.8) ">
<use xlink:href="#Layer3_9_FILL"/>
</g>

<g transform="matrix( 1, 0, 0, 1, -65.25,56.8) ">
<use xlink:href="#Layer3_10_FILL"/>
</g>

<g transform="matrix( 1, 0, 0, 1, -65.25,56.8) ">
<use xlink:href="#Layer3_11_FILL"/>
</g>

<g transform="matrix( 1, 0, 0, 1, -65.25,56.8) ">
<use xlink:href="#Layer3_12_FILL"/>
</g>

<g transform="matrix( 1, 0, 0, 1, -65.25,56.8) ">
<use xlink:href="#Layer3_13_FILL"/>
</g>

<g transform="matrix( 1, 0, 0, 1, -65.25,56.8) ">
<use xlink:href="#Layer3_14_FILL"/>
</g>

<g transform="matrix( 1, 0, 0, 1, -65.25,56.8) ">
<use xlink:href="#Layer3_15_FILL"/>
</g>

<g transform="matrix( 1, 0, 0, 1, -65.25,56.8) ">
<use xlink:href="#Layer3_16_FILL"/>
</g>

<g transform="matrix( 1, 0, 0, 1, -65.25,56.8) ">
<use xlink:href="#Layer3_17_FILL"/>
</g>

<g transform="matrix( 1, 0, 0, 1, -65.25,56.8) ">
<use xlink:href="#Layer3_18_FILL"/>
</g>

<g transform="matrix( 1, 0, 0, 1, -65.25,56.8) ">
<use xlink:href="#Layer3_19_FILL"/>
</g>

<g transform="matrix( 1, 0, 0, 1, -65.25,56.8) ">
<use xlink:href="#Layer3_20_FILL"/>
</g>

<g transform="matrix( 1, 0, 0, 1, -65.25,56.8) ">
<use xlink:href="#Layer3_21_FILL"/>
</g>
</svg>
